1355219131237;0.986766
1355219132237;0
1355219287649;3.09237
1355219288649;0
1355219330328;2.40321
1355219331328;0
1355219406643;13.1101
1355219407643;0
1355219435276;6.14151
1355219436276;0
1355219451280;13.6264
1355219453088;0
1355219478764;13.3587
1355219479764;0
1355219661067;19.5947
1355219663387;0
1355219674575;4.31605
1355219675575;0
1355219763308;7.16314
1355219764308;0
1355219926469;40.1693
1355219927469;0
1355219931600;6.38492
1355219932600;0
1355219938419;8.00954
1355219939419;0
1355219945847;2.48106
1355219946847;0
1355219976846;45.0461
1355219982510;0
1355220189535;6.46809
1355220190535;0
1355220253969;47.2345
1355220254969;0
1355220348852;11.8544
1355220349852;0
1355220361342;7.56993
1355220362342;0
1355220362490;12.5223
1355220363490;0
1355220365664;12.2446
1355220366664;0
1355220388966;5.3837
1355220389966;0
1355220438264;44.1887
1355220439264;0
1355220753993;13.182
1355220754993;0
1355220765484;3.02874
1355220766484;0
1355220788038;1.51539
1355220791990;0
1355220800946;1.45839
1355220802306;0
1355220829130;19.2048
1355220830538;0
1355220840012;24.8265
1355220841724;0
1355220883650;10.638
1355220884650;0
