1355219125107;1
1355219142935;1
1355219172904;1
1355219202919;1
1355219238123;1
1355219262919;1
1355219292888;1
1355219322888;1
1355219352904;1
1355219382873;1
1355219412888;1
1355219446935;1
1355219472857;1
1355219502888;1
1355219537216;1
1355219562841;1
1355219592841;1
1355219622857;1
1355219652857;1
1355219682857;1
1355219712841;1
1355219742826;1
1355219772826;1
1355219803794;1
1355219835810;1
1355219862794;1
1355219892794;1
1355219922794;1
1355219973607;1
1355219988748;1
1355220012794;1
1355220042779;1
1355220072810;1
1355220102763;1
1355220132748;1
1355220162748;1
1355220195982;1
1355220222779;1
1355220252779;1
1355220282763;1
1355220315607;1
1355220345732;1
1355220372810;1
1355220402841;1
1355220432888;1
1355220462826;1
1355220492701;1
1355220522716;1
1355220554091;1
1355220582685;1
1355220612716;1
1355220645685;1
1355220675951;1
1355220702685;1
1355220732685;1
1355220762763;1
1355220792654;1
1355220822638;1
1355220852623;1
1355220882638;1
1355220912732;1
1355220942607;1
1355220972623;1
1355221002607;1
1355221032623;1
1355221063904;1
