1355219123466;0.014475088566541672
1355219447060;0.029326753690838814
1355219450185;3.5295557975769043
1355219463076;3.57918119430542
1355219469716;3.5805504322052
1355219877623;0.08801297843456268
1355219890544;3.728508949279785
