1355219123419;5462.0
1355219124841;5462.0
1355219128435;5462.0
1355219133466;5462.0
1355219138482;5462.0
1355219143513;5462.0
1355219148513;5462.0
1355219153513;5462.0
1355219158560;5462.0
1355219163560;5462.0
1355219168607;5462.0
1355219173591;5462.0
1355219178591;5462.0
1355219183607;5462.0
1355219191623;5462.0
1355219195060;5462.0
1355219198669;5462.0
1355219203669;5462.0
1355219225013;5462.0
1355219225279;5462.0
1355219225623;5462.0
1355219226013;5462.0
1355219228779;5462.0
1355219241154;5462.0
1355219241529;5462.0
1355219243826;5462.0
1355219248826;5462.0
1355219256841;5462.0
1355219258857;5462.0
1355219263857;5462.0
1355219268888;5462.0
1355219273888;5462.0
1355219278919;5462.0
1355219283935;5462.0
1355219288966;5462.0
1355219293951;5462.0
1355219298998;5462.0
1355219303998;5462.0
1355219309013;5462.0
1355219314060;5462.0
1355219319044;5462.0
1355219324060;5462.0
1355219329091;5462.0
1355219334107;5462.0
1355219339123;5462.0
1355219344138;5462.0
1355219349138;5462.0
1355219354154;5462.0
1355219359169;5462.0
1355219365029;5462.0
1355219369232;5462.0
1355219374201;5462.0
1355219379263;5462.0
1355219384248;5462.0
1355219389263;5462.0
1355219394310;5462.0
1355219399294;5462.0
1355219404310;5462.0
1355219409326;5462.0
1355219414341;5462.0
1355219419357;5462.0
1355219424435;5462.0
1355219445763;5462.0
1355219446279;5462.0
1355219446607;5462.0
1355219447091;5462.0
1355219449529;5462.0
1355219454466;5462.0
1355219459498;5462.0
1355219464498;5462.0
1355219469513;5462.0
1355219474544;5462.0
1355219479544;5462.0
1355219484591;5462.0
1355219489591;5462.0
1355219497654;5462.0
1355219499638;5462.0
1355219504623;5462.0
1355219509654;5462.0
1355219514654;5462.0
1355219536044;5462.0
1355219536466;5462.0
1355219536763;5462.0
1355219537279;5462.0
1355219539763;5462.0
1355219544748;5462.0
1355219549794;5462.0
1355219555998;5462.0
1355219559810;5462.0
1355219564810;5462.0
1355219569826;5462.0
1355219574873;5462.0
1355219579873;5462.0
1355219584873;5462.0
1355219589904;5462.0
1355219594919;5462.0
1355219599935;5462.0
1355219604951;5462.0
1355219610060;5462.0
1355219614998;5462.0
1355219620013;5462.0
1355219624998;5462.0
1355219630060;5462.0
1355219635044;5462.0
1355219640107;5462.0
1355219645091;5462.0
1355219650091;5462.0
1355219655107;5462.0
1355219660123;5462.0
1355219665154;5462.0
1355219670169;5462.0
1355219675201;5462.0
1355219680185;5462.0
1355219685201;5462.0
1355219690216;5462.0
1355219695232;5462.0
1355219700263;5462.0
1355219705294;5462.0
1355219710294;5462.0
1355219715310;5462.0
1355219720357;5462.0
1355219728388;5462.0
1355219730341;5462.0
1355219735357;5462.0
1355219740388;5462.0
1355219745388;5462.0
1355219750404;5462.0
1355219755419;5462.0
1355219760435;5462.0
1355219765451;5462.0
1355219770466;5462.0
1355219775482;5462.0
1355219780529;5462.0
1355219785513;5462.0
1355219790560;5462.0
1355219795623;5462.0
1355219803529;5462.0
1355219805576;5462.0
1355219810638;5462.0
1355219818638;5462.0
1355219820623;5462.0
1355219825638;5462.0
1355219830669;5462.0
1355219835857;5462.0
1355219840748;5462.0
1355219853294;5462.0
1355219856685;5462.0
1355219857185;5462.0
1355219860763;5462.0
1355219865794;5462.0
1355219870810;5462.0
1355219875841;5462.0
1355219880826;5462.0
1355219885857;5462.0
1355219890857;5462.0
1355219895873;5462.0
1355219900888;5462.0
1355219905904;5462.0
1355219910982;5462.0
1355219915935;5462.0
1355219920951;5462.0
1355219925966;5462.0
1355219930998;5462.0
1355219935998;5462.0
1355219941013;5462.0
1355219946044;5462.0
1355219952294;5462.0
1355219976748;5462.0
1355219977201;5462.0
1355219983794;5462.0
1355219984435;5462.0
1355219987935;5462.0
1355219988373;5462.0
1355219988888;5462.0
1355219992373;5462.0
1355219996216;5462.0
1355220001232;5462.0
1355220006248;5462.0
1355220011263;5462.0
1355220016279;5462.0
1355220021279;5462.0
1355220026326;5462.0
1355220031294;5462.0
1355220036310;5462.0
1355220041357;5462.0
1355220046451;5462.0
1355220051388;5462.0
1355220056404;5462.0
1355220061388;5462.0
1355220066435;5462.0
1355220071435;5462.0
1355220076435;5462.0
1355220081451;5462.0
1355220086482;5462.0
1355220091498;5462.0
1355220096529;5462.0
1355220101544;5462.0
1355220106529;5462.0
1355220111544;5462.0
1355220116591;5462.0
1355220121576;5462.0
1355220126623;5462.0
1355220131638;5462.0
1355220136654;5462.0
1355220141654;5462.0
1355220146685;5462.0
1355220151701;5462.0
1355220156701;5462.0
1355220161716;5462.0
1355220166732;5462.0
1355220174732;5462.0
1355220176763;5462.0
1355220181794;5462.0
1355220191998;5462.0
1355220192623;5462.0
1355220196841;5462.0
1355220201998;5462.0
1355220206857;5462.0
1355220212919;5462.0
1355220216919;5462.0
1355220221919;5462.0
1355220226935;5462.0
1355220231951;5462.0
1355220236951;5462.0
1355220242013;5462.0
1355220247138;5462.0
1355220251998;5462.0
1355220257044;5462.0
1355220262060;5462.0
1355220268810;5462.0
1355220272076;5462.0
1355220280076;5462.0
1355220282107;5462.0
1355220287123;5462.0
1355220292154;5462.0
1355220297138;5462.0
1355220302201;5462.0
1355220307169;5462.0
1355220312185;5462.0
1355220317216;5462.0
1355220322232;5462.0
1355220328810;5462.0
1355220332279;5462.0
1355220337294;5462.0
1355220342279;5462.0
1355220347326;5462.0
1355220352326;5462.0
1355220357326;5462.0
1355220362357;5462.0
1355220367373;5462.0
1355220372373;5462.0
1355220377404;5462.0
1355220382419;5462.0
1355220390341;5462.0
1355220392451;5462.0
1355220397451;5462.0
1355220402466;5462.0
1355220407498;5462.0
1355220412544;5462.0
1355220417576;5462.0
1355220422560;5462.0
1355220427560;5462.0
1355220432607;5462.0
1355220437607;5462.0
1355220442591;5462.0
1355220447623;5462.0
1355220452763;5462.0
1355220457669;5462.0
1355220462669;5462.0
1355220467685;5462.0
1355220472716;5462.0
1355220477716;5462.0
1355220482779;5462.0
1355220487748;5462.0
1355220492779;5462.0
1355220500779;5462.0
1355220502810;5462.0
1355220507826;5462.0
1355220512857;5462.0
1355220517841;5462.0
1355220522935;5462.0
1355220527873;5462.0
1355220532904;5462.0
1355220537919;5462.0
1355220542966;5462.0
1355220550873;5462.0
1355220554185;5462.0
1355220557966;5462.0
1355220562998;5462.0
1355220567998;5462.0
1355220575138;5462.0
1355220578029;5462.0
1355220583060;5462.0
1355220588060;5462.0
1355220593091;5462.0
1355220598091;5462.0
1355220605998;5462.0
1355220609357;5462.0
1355220613138;5462.0
1355220618185;5462.0
1355220623185;5462.0
1355220628201;5462.0
1355220633216;5462.0
1355220638216;5462.0
1355220645716;5462.0
1355220651498;5462.0
1355220653279;5462.0
1355220674779;5462.0
1355220675294;5462.0
1355220675623;5462.0
1355220676013;5462.0
1355220678388;5462.0
1355220683373;5462.0
1355220688388;5462.0
1355220693404;5462.0
1355220698404;5462.0
1355220703451;5462.0
1355220708451;5462.0
1355220716685;5462.0
1355220718513;5462.0
1355220723529;5462.0
1355220728529;5462.0
1355220733654;5462.0
1355220738529;5462.0
1355220743560;5462.0
1355220748607;5462.0
1355220753591;5462.0
1355220758623;5462.0
1355220763623;5462.0
1355220768654;5462.0
1355220773654;5462.0
1355220778685;5462.0
1355220783685;5462.0
1355220788701;5462.0
1355220793732;5462.0
1355220798716;5462.0
1355220803763;5462.0
1355220808794;5462.0
1355220813779;5462.0
1355220818826;5462.0
1355220823810;5462.0
1355220828826;5462.0
1355220833873;5462.0
1355220833935;5462.0
1355220838873;5462.0
1355220843873;5462.0
1355220848888;5462.0
1355220875091;5462.0
1355220876154;5462.0
1355220876904;5462.0
1355220878123;5462.0
1355220878623;5462.0
1355220879044;5462.0
1355220884044;5462.0
1355220889060;5462.0
1355220894060;5462.0
1355220899076;5462.0
1355220904076;5462.0
1355220909091;5462.0
1355220914107;5462.0
1355220919123;5462.0
1355220924123;5462.0
1355220929138;5462.0
1355220934185;5462.0
1355220939185;5462.0
1355220944201;5462.0
1355220949216;5462.0
1355220954232;5462.0
1355220959232;5462.0
1355220964263;5462.0
1355220969279;5462.0
1355220974294;5462.0
1355220979326;5462.0
1355220987326;5462.0
1355220989357;5462.0
1355220994357;5462.0
1355220999388;5462.0
1355221004373;5462.0
1355221009388;5462.0
1355221014419;5462.0
1355221019435;5462.0
1355221024435;5462.0
1355221029482;5462.0
1355221034498;5462.0
1355221039513;5462.0
1355221044529;5462.0
1355221049529;5462.0
1355221054544;5462.0
1355221059591;5462.0
1355221064607;5462.0
1355221069638;5462.0
