1355219122904;21.86
1355219130888;21.86
1355219194966;21.88
1355219250935;21.900000000000002
1355219311060;21.92
1355219371060;21.94
1355219446154;21.96
1355219491201;22.0
1355219551232;22.02
1355219611373;22.04
1355219671357;22.06
1355219731435;22.1
1355219791466;22.1
1355219857091;22.12
1355219911623;22.16
1355219984857;22.16
1355220031685;22.18
1355220094826;22.240000000000002
1355220151919;22.240000000000002
1355220212873;22.26
1355220271779;22.28
1355220331841;22.28
1355220391857;22.28
1355220451904;22.28
1355220512013;22.28
1355220574998;22.28
1355220632076;22.3
1355220692091;22.3
1355220752201;22.3
1355220812201;22.28
1355220878529;22.3
1355220932263;22.34
1355220992294;22.34
1355221012591;22.36
