1355219124560;0
1355219126873;0
1355220069294;0
1355220094951;0
1355220191826;0
1355220723341;0
1355220875654;0
1355220876419;0
1355220877216;0
1355220877591;0
1355220881060;0
1355220885544;0
1355221064873;0
1355221067310;0
1355221068373;0
