1355219124748;1
1355219463326;0
1355219475685;1
1355219537154;0
1355219687185;1
1355219881919;0
1355219905466;1
1355219988841;0
1355220064044;1
1355220120529;0
1355220192544;1
1355220231216;0
1355220233982;1
1355220436779;0
1355220719326;1
1355220759623;0
1355220878060;1
1355220907873;0
1355221064013;1
