1355822243021;4.91049
1355822244021;0
1355822879162;7.47014
1355822880162;0
1355823119419;4.90345
1355823120419;0
1355823151855;6.24976
1355823152855;0
1355823201758;1.88464
1355823202758;0
1355823203860;2.4157
1355823204860;0
1355823228937;41.003
1355823229937;0
1355823345211;39.9514
1355823346211;0
1355823351238;5.89324
1355823352238;0
1355823380359;6.75205
1355823381359;0
1355823399860;2.83517
1355823400860;0
1355823686766;44.2289
1355823688286;0
1355823793150;41.226
1355823794150;0
1355823843765;7.09826
1355823844765;0
1355823860693;3.07014
1355823861693;0
1355824111892;2.82904
1355824112892;0
1355824117848;8.47951
1355824119192;0
1355824218175;8.70195
1355824219175;0
