1355822136521;21.32
1355822187896;21.34
1355822307896;21.4
1355822427833;21.42
1355822547833;21.42
1355822667833;21.42
1355822787802;21.46
1355822907786;21.48
1355823027786;21.5
1355823147786;21.5
1355823267755;21.52
1355823387740;21.58
1355823507740;21.56
1355823627724;21.54
1355823747708;21.5
1355823867958;21.5
1355823987661;21.5
1355824107646;21.5
1355824227630;21.56
