1355822134802;0
1355822179240;1
1355822666693;0
1355822682474;1
1355822771740;0
1355822794240;1
1355822937115;0
1355822947130;1
1355823021693;0
1355823024068;1
1355823055474;0
1355823070802;1
1355823264240;0
1355823364490;1
1355823458755;0
1355823473458;1
1355823654615;0
1355823659661;1
1355823762693;0
1355823798990;1
1355823920193;0
1355824201724;1
1355824241849;0
1355824327568;1
