1355822134099;729.6
1355822136365;728.96
1355822194130;732.8000000000001
1355822254161;732.8000000000001
1355822314208;727.6800000000001
1355822374271;722.5600000000001
1355822434318;720.64
1355822494396;716.8000000000001
1355822554443;720.64
1355822614505;720.64
1355822674568;716.8000000000001
1355822734646;716.8000000000001
1355822794693;716.8000000000001
1355822854661;721.92
1355822914818;726.4
1355822974677;725.76
1355823034708;732.8000000000001
1355823094740;730.88
1355823154865;733.44
1355823214911;734.72
1355823275005;734.72
1355823335052;743.6800000000001
1355823395146;746.88
1355823455193;756.48
1355823515208;762.88
1355823575255;759.6800000000001
1355823635302;745.6
1355823695396;734.72
1355823755458;724.48
1355823815505;720.64
1355823875599;720.0
1355823935677;718.72
1355823995708;718.72
1355824055740;711.6800000000001
1355824115724;706.5600000000001
1355824175755;702.72
1355824235818;710.4
1355824295818;722.5600000000001
