1355822134505;21.02
1355822149052;21.04
1355822209099;21.06
1355822269161;21.080000000000002
1355822329193;21.1
1355822389286;21.12
1355822449333;21.14
1355822509396;21.16
1355822569458;21.18
1355822629536;21.2
1355822689599;21.22
1355822749677;21.22
1355822809693;21.26
1355822869693;21.26
1355822929740;21.3
1355822989708;21.3
1355822990036;21.32
1355823049708;21.32
1355823109740;21.34
1355823169771;21.36
1355823229927;21.38
1355823290036;21.400000000000002
1355823350099;21.42
1355823410146;21.42
1355823470255;21.42
1355823530208;21.400000000000002
1355823590240;21.38
1355823650318;21.36
1355823710333;21.34
1355823770490;21.34
1355823830521;21.32
1355823890583;21.3
1355823950708;21.3
1355824010771;21.28
1355824070740;21.3
1355824130724;21.34
1355824190755;21.32
1355824250755;21.32
1355824310849;21.3
