1355822133974;0
1355822274411;0
1355822274536;98
1355823240130;0
1355823240208;0
1355823452068;0
1355823452146;98
1355823725536;0
1355823725646;0
1355823847865;0
1355823847943;98
1355824326724;0
1355824326833;0
1355824330615;0
1355824330818;98
