1354697116460;10
1354697133397;10
1354697566319;10
1354697943210;10
1354698012772;10
1354698054007;10
1354698439475;10
1354698445272;10
1354698447632;20
1354698451194;20
1354698452663;20
1354698453741;20
1354698456444;20
1354698496335;10
1354698553679;10
1354698634804;10
1354698836194;30
1354698877850;10
1354698952132;20
1354698952460;20
1354699013350;10
1354699026804;20
1354699027194;20
1354699031179;20
1354699031882;20
1354699032772;20
1354699042600;10
1354699055194;30
1354699104007;10
1354699144554;10
1354699162085;20
1354699162647;20
1354699172866;20
1354699184475;20
1354699273585;20
1354699274100;20
1354699310835;30
1354699354944;10
