1354697117132;0
1354697134835;1
1354697420944;0
1354697423100;1
1354697618616;0
1354697636788;1
1354698011257;0
1354698054304;1
1354698337663;0
1354698345710;1
1354698549616;0
1354698635054;1
1354698876725;0
1354699104679;1
1354699139897;0
1354699357413;1
