1354697116382;0.0
1354697138897;0.0
1354697168897;0.0
1354697198882;0.0
1354697228975;0.0
1354697258866;0.0
1354697292538;3.0
1354697318913;3.0
1354697348850;3.0
1354697378866;3.0
1354697410913;3.0
1354697438835;3.0
1354697468835;3.0
1354697498819;3.0
1354697528819;1.0
1354697558850;3.0
1354697588819;4.0
1354697618804;4.0
1354697648788;4.0
1354697678788;4.0
1354697709772;4.0
1354697738788;2.0
1354697768835;2.0
1354697798772;2.0
1354697843538;4.0
1354697860038;2.0
1354697888788;4.0
1354697918772;4.0
1354697948741;4.0
1354697978757;0.0
1354698008757;0.0
1354698054179;0.0
1354698070444;0.0
1354698098757;0.0
1354698128710;5.0
1354698158710;5.0
1354698188725;5.0
1354698218725;6.0
1354698248710;6.0
1354698278679;5.0
1354698308694;4.0
1354698338679;4.0
1354698368725;4.0
1354698398757;4.0
1354698428757;5.0
1354698458850;6.0
1354698488804;7.0
1354698518741;0.0
1354698548647;0.0
1354698578647;0.0
1354698608663;0.0
1354698638632;0.0
1354698668663;0.0
1354698701632;4.0
1354698728616;4.0
1354698775897;3.0
1354698788616;2.0
1354698818616;2.0
1354698848600;2.0
1354698885132;2.0
1354698908600;2.0
1354698938585;2.0
1354698968585;2.0
1354699012179;2.0
1354699032663;2.0
1354699058554;2.0
1354699088585;2.0
1354699118569;2.0
1354699148554;2.0
1354699179257;2.0
1354699209397;2.0
1354699238569;2.0
1354699268569;2.0
1354699298538;0.0
1354699328522;0.0
1354699358522;0.0
