1354782351334;20.543
1354782352334;0
1354782352688;12.0332
1354782353688;0
1354782425614;1.38521
1354782426614;0
1354782426697;52.7284
1354782427697;0
1354782443725;10.5305
1354782444725;0
1354782451727;22.4251
1354782452727;0
1354782467542;12.5772
1354782468542;0
1354782469648;9.67086
1354782470648;0
1354782576892;4.24163
1354782577892;0
1354782619834;10.425
1354782620834;0
1354782678580;11.5841
1354782679462;48.4563
1354782680462;0
1354782688417;3.27884
1354782689417;0
1354782689500;1.0428
1354782690500;0
1354782696621;4.80744
1354782697621;0
1354782698185;5.22588
1354782699185;0
1354782707953;44.877
1354782708953;0
1354782709647;6.11708
1354782710647;0
1354782711342;2.02044
1354782712574;0
1354782716567;2.39947
1354782720279;0
1354782721180;44.3075
1354782722180;0
1354782754294;5.55512
1354782755294;0
1354782763520;2.79142
1354782764520;0
1354782927122;6.98753
1354782928122;0
1354782944641;12.9908
1354782945641;0
1354782947830;18.7116
1354782948830;0
1354782953597;19.6764
1354782953868;9.898
1354782954868;0
1354783048395;18.8104
1354783048936;4.36994
1354783049936;0
1354783088959;5.88043
1354783089959;0
1354783098657;13.9941
1354783099657;0
1354783100692;4.56691
1354783101692;0
1354783102187;53.6469
1354783103187;0
1354783209260;10.231
1354783210260;0
1354783212720;12.2431
1354783213720;0
1354783216521;2.34914
1354783217521;0
1354783222558;0.706013
1354783223558;0
1354783223912;44.5726
1354783224912;0
1354783291974;1.22919
1354783292974;0
1354783303366;1.69798
1354783304366;0
1354783306896;1.76494
1354783307896;0
1354783312592;1.27862
1354783313592;0
1354783321006;41.8787
1354783322006;0
1354783572407;3.18203
1354783573407;0
1354783752686;5.74379
1354783753686;0
1354783755193;6.46326
1354783756193;0
