1354782338919;11.2603
1354782339919;0
1354782374599;40.2671
1354782375599;0
1354782582799;7.32874
1354782583799;0
1354782718803;10.773
1354782720355;0
1354782771251;9.83598
1354782772251;0
1354782835774;17.6232
1354782837214;0
1354782844729;27.4664
1354782846393;0
1354782850766;10.9027
1354782851766;0
1354782868356;13.5198
1354782877044;0
1354782879638;17.1063
1354782880638;0
1354783043350;12.162
1354783045206;0
1354783048665;17.8733
1354783050089;0
1354783223099;0.207921
1354783224099;0
1354783246375;11.4334
1354783246646;3.34219
1354783247646;0
1354783483455;28.9874
1354783484455;0
1354783550214;13.2596
1354783551430;0
1354783573289;8.6726
1354783574289;0
1354783618677;5.40679
1354783619677;0
1354783621876;12.6599
1354783622876;0
1354783634362;3.99202
1354783635362;0
1354783670925;22.311
1354783672061;0
1354783679269;9.66467
1354783680269;0
