1354782328116;0.0
1354782355866;0.0
1354782385850;0.0
1354782415866;0.0
1354782445850;0.0
1354782478866;1.0
1354782505850;1.0
1354782535835;1.0
1354782565850;1.0
1354782595819;1.0
1354782625835;0.0
1354782655819;0.0
1354782685819;1.0
1354782715835;1.0
1354782745804;0.0
1354782775804;0.0
1354782805835;0.0
1354782835788;0.0
1354782865788;0.0
1354782910225;0.0
1354782925757;0.0
1354782955757;0.0
1354782985757;1.0
1354783015757;1.0
1354783045757;0.0
1354783075757;0.0
1354783105757;0.0
1354783135725;0.0
1354783165725;0.0
1354783195741;0.0
1354783225725;0.0
1354783255741;0.0
1354783285725;0.0
1354783315694;0.0
1354783346304;0.0
1354783375741;0.0
1354783405741;0.0
1354783438163;0.0
1354783465694;0.0
1354783495710;0.0
1354783525725;0.0
1354783555663;0.0
1354783585788;0.0
1354783615804;0.0
1354783645741;0.0
1354783675757;0.0
1354783705679;0.0
1354783735647;0.0
1354783765632;0.0
