1354782327804;0
1354782346335;1
1354782467163;0
1354782509929;1
1354782549679;0
1354782561038;1
1354782831741;0
1354782910116;1
1354783120788;0
1354783217272;1
1354783373600;0
1354783616632;1
1354783652100;0
1354783748991;1
