1354786518918;18.2323
1354786519918;0
1354786546248;9.53327
1354786547248;0
1354786578647;5.4875
1354786579647;0
1354786588857;6.81535
1354786589857;0
1354786628246;5.58034
1354786629246;0
1354787077069;9.5178
1354787078069;0
1354787110888;8.34244
1354787111888;0
1354787175767;9.44095
1354787176767;0
1354787369264;5.98779
1354787370264;0
1354787387604;6.23802
1354787388604;0
1354787395114;7.95596
1354787396114;0
1354787551861;8.12734
1354787552861;0
1354787559991;9.9462
1354787560991;0
1354787563571;20.7948
1354787564571;0
1354787680469;5.91637
1354787681469;0
1354787687299;5.33875
1354787688299;0
1354787759347;2.64173
1354787760347;0
1354787847836;4.84955
1354787848836;0
1354787863325;3.40456
1354787864325;0
1354787864745;45.9677
1354787865745;0
1354787905534;0.206529
1354787906534;0
1354788051852;9.31011
1354788052852;0
1354788058822;5.65433
1354788059822;0
1354788071672;11.8007
1354788072672;0
1354788091832;20.0132
1354788092872;0
1354788115842;10.505
1354788116842;0
1354788410686;2.60428
1354788411686;0
1354788452355;8.95385
1354788453875;0
