1354786506960;5.0
1354786528554;8.0
1354786558554;8.0
1354786588569;17.0
1354786618538;20.0
1354786648569;12.0
1354786678585;17.0
1354786708647;6.0
1354786738522;3.0
1354786768522;7.0
1354786798522;10.0
1354786828522;4.0
1354786858507;14.0
1354786906725;15.0
1354786918538;6.0
1354786949413;2.0
1354786987882;3.0
1354787009569;8.0
1354787038491;17.0
1354787068460;18.0
1354787098507;18.0
1354787128460;17.0
1354787158460;11.0
1354787206616;17.0
1354787218460;17.0
1354787248444;16.0
1354787278429;15.0
1354787308429;10.0
1354787338444;17.0
1354787368444;17.0
1354787398444;17.0
1354787447522;17.0
1354787461100;17.0
1354787488413;17.0
1354787518413;17.0
1354787548397;17.0
1354787578397;16.0
1354787608538;16.0
1354787641491;16.0
1354787668569;16.0
1354787708819;16.0
1354787728382;16.0
1354787758366;16.0
1354787788350;16.0
1354787818366;16.0
1354787848366;21.0
1354787878350;20.0
1354787916257;23.0
1354787938350;18.0
1354787968350;6.0
1354788030413;6.0
1354788033085;21.0
1354788058335;12.0
1354788088335;17.0
1354788118335;17.0
1354788148288;5.0
1354788178288;5.0
1354788208288;6.0
1354788238288;4.0
1354788268616;1.0
1354788298679;1.0
1354788342429;1.0
1354788358257;1.0
1354788388272;1.0
1354788423788;1.0
1354788451257;1.0
1354788478241;1.0
1354788508241;1.0
