1354786506007;1
1354786528038;1
1354786555538;1
1354786585538;1
1354786615538;1
1354786645522;1
1354786675554;1
1354786708585;1
1354786735663;1
1354786765710;1
1354786795507;1
1354786825507;1
1354786855507;1
1354786906319;1
1354786915507;1
1354786945491;1
1354786987538;1
1354787005475;1
1354787035475;1
1354787065491;1
1354787095460;1
1354787125460;1
1354787155460;1
1354787203210;1
1354787215429;1
1354787245429;1
1354787275429;1
1354787305460;1
1354787335429;1
1354787365413;1
1354787395397;1
1354787447038;1
1354787455397;1
1354787485397;1
1354787515397;1
1354787545413;1
1354787575397;1
1354787605397;1
1354787636600;1
1354787665397;1
1354787708788;1
1354787725397;1
1354787755350;1
1354787785366;1
1354787815382;1
1354787845350;1
1354787875350;1
1354787916210;1
1354787935319;1
1354787965319;1
1354788030366;1
1354788033038;1
1354788055319;1
1354788085304;1
1354788115335;1
1354788145335;1
1354788175350;1
1354788205429;1
1354788235475;1
1354788268429;1
1354788295288;1
1354788342054;1
1354788355257;1
1354788385288;1
1354788423335;1
1354788445241;1
1354788475225;1
1354788505225;1
