1358762639748;0
1358762900857;0
1358762901014;98
1358763226092;94
1358763231357;100
1358763237654;83
1358763278498;100
1358763280279;100
1358763282186;72
1358763790045;98
1358763828154;0
1358763828279;0
