1358762640623;539.84
1358762682107;541.76
1358762742123;538.88
1358762802201;539.84
1358762862217;542.72
1358762922248;538.88
1358762982232;545.92
1358763042295;546.88
1358763102279;545.92
1358763162373;546.88
1358763222420;550.72
1358763282436;554.88
1358763342561;561.92
1358763402561;568.96
1358763462654;566.72
1358763522670;566.72
1358763582748;560.96
1358763642811;553.92
1358763702873;550.72
1358763762936;545.92
1358763822951;546.88
1358763883061;552.96
1358763943107;554.88
1358764003170;555.84
1358764063201;557.76
1358764123279;571.84
