1358762640045;15.0
1358762646170;15.0
1358762676154;15.0
1358762706186;15.0
1358762736139;15.0
1358762766154;14.0
1358762796170;15.0
1358762826123;15.0
1358762856139;15.0
1358762886107;15.0
1358762916123;6.0
1358762946107;6.0
1358762976123;6.0
1358763006092;6.0
1358763036092;5.0
1358763066076;7.0
1358763096076;7.0
1358763126092;7.0
1358763156076;7.0
1358763186061;7.0
1358763216076;5.0
1358763246092;5.0
1358763276061;5.0
1358763306045;5.0
1358763336061;5.0
1358763366029;5.0
1358763396092;5.0
1358763426061;4.0
1358763456061;3.0
1358763485998;1.0
1358763516014;2.0
1358763546014;2.0
1358763575998;2.0
1358763605982;2.0
1358763636014;2.0
1358763666029;2.0
1358763695982;2.0
1358763725967;2.0
1358763756061;2.0
1358763786014;2.0
1358763815982;2.0
1358763845998;2.0
1358763876076;2.0
1358763906014;2.0
1358763935982;2.0
1358763965951;2.0
1358763995920;2.0
1358764025936;2.0
1358764055982;2.0
1358764085936;2.0
1358764115936;2.0
