1358762641076;372.0
1358762641920;373.0
1358762646920;370.0
1358762651936;372.0
1358762656982;371.0
1358762662014;371.0
1358762666998;370.0
1358762671998;371.0
1358762677045;369.0
1358762682045;372.0
1358762687123;371.0
1358762692139;374.0
1358762697123;373.0
1358762702123;374.0
1358762707201;372.0
1358762712154;375.0
1358762717123;371.0
1358762722170;374.0
1358762727186;371.0
1358762732217;371.0
1358762737232;369.0
1358762742248;369.0
1358762747248;369.0
1358762752326;373.0
1358762757279;370.0
1358762762311;370.0
1358762767357;372.0
1358762772357;372.0
1358762777389;370.0
1358762782404;374.0
1358762787389;374.0
1358762792404;371.0
1358762797404;372.0
1358762802436;370.0
1358762807467;370.0
1358762812482;375.0
1358762817545;374.0
1358762822607;375.0
1358762827514;373.0
1358762832592;375.0
1358762837529;373.0
1358762842576;373.0
1358762847607;374.0
1358762852623;372.0
1358762857623;370.0
1358762862717;371.0
1358762867732;371.0
1358762872670;370.0
1358762877717;372.0
1358762882701;369.0
1358762887717;372.0
1358762892748;193.0
1358762897764;193.0
1358762902779;193.0
1358762907748;281.0
1358762912842;279.0
1358762917889;279.0
1358762922795;280.0
1358762927889;281.0
1358762932857;283.0
1358762937904;283.0
1358762942889;283.0
1358762948061;282.0
1358762952951;283.0
1358762958076;281.0
1358762962951;282.0
1358762967982;283.0
1358762973014;281.0
1358762977967;282.0
1358762983014;281.0
1358762988029;281.0
1358762992998;280.0
1358762998139;280.0
1358763003123;280.0
1358763008092;280.0
1358763013139;280.0
1358763018170;279.0
1358763023139;280.0
1358763028139;280.0
1358763033201;280.0
1358763038201;279.0
1358763043170;280.0
1358763048217;281.0
1358763053248;281.0
1358763058248;378.0
1358763063279;379.0
1358763068295;377.0
1358763073357;378.0
1358763078342;379.0
1358763083342;378.0
1358763088342;374.0
1358763093467;377.0
1358763098373;375.0
1358763103404;375.0
1358763108404;377.0
1358763113451;374.0
1358763118529;376.0
1358763123467;377.0
1358763128498;376.0
1358763133514;378.0
1358763138514;376.0
1358763143482;376.0
1358763148545;374.0
1358763153576;375.0
1358763158607;375.0
1358763163623;378.0
1358763168639;376.0
1358763173732;377.0
1358763178654;380.0
1358763183717;379.0
1358763188686;380.0
1358763193701;380.0
1358763198670;377.0
1358763203701;300.0
1358763208701;282.0
1358763213764;282.0
1358763218732;536.0
1358763223811;281.0
1358763228795;280.0
1358763233811;281.0
1358763238904;281.0
1358763243904;273.0
1358763248904;275.0
1358763253936;272.0
1358763258982;273.0
1358763263904;274.0
1358763269045;273.0
1358763273982;274.0
1358763278998;273.0
1358763283982;280.0
1358763289014;266.0
1358763294061;265.0
1358763299076;268.0
1358763304076;268.0
1358763309092;267.0
1358763314092;268.0
1358763319139;270.0
1358763324201;268.0
1358763329170;270.0
1358763334154;268.0
1358763339123;266.0
1358763344186;266.0
1358763349232;264.0
1358763354279;266.0
1358763359232;264.0
1358763364217;266.0
1358763369217;266.0
1358763374279;267.0
1358763379264;265.0
1358763384295;267.0
1358763389326;266.0
1358763394342;267.0
1358763399357;264.0
1358763404373;265.0
1358763409357;270.0
1358763414389;268.0
1358763419373;268.0
1358763424498;267.0
1358763429436;266.0
1358763434451;268.0
1358763439467;268.0
1358763444529;267.0
1358763449529;382.0
1358763454545;380.0
1358763459545;495.0
1358763464561;493.0
1358763469561;492.0
1358763474607;488.0
1358763479623;491.0
1358763484639;490.0
1358763489670;435.0
1358763494654;461.0
1358763499732;351.0
1358763504686;348.0
1358763509686;350.0
1358763514686;353.0
1358763519717;351.0
1358763524811;352.0
1358763529764;350.0
1358763534779;353.0
1358763539826;352.0
1358763544857;352.0
1358763549779;352.0
1358763554857;350.0
1358763559920;352.0
1358763564920;353.0
1358763569920;354.0
1358763574920;353.0
1358763579889;351.0
1358763584904;350.0
1358763589967;349.0
1358763594982;350.0
1358763600107;349.0
1358763605045;348.0
1358763610045;619.0
1358763615045;619.0
1358763620045;621.0
1358763625061;616.0
1358763630061;620.0
1358763635107;620.0
1358763640107;621.0
1358763645123;619.0
1358763650154;620.0
1358763655186;615.0
1358763660217;624.0
1358763665201;622.0
1358763670311;625.0
1358763675326;624.0
1358763680248;625.0
1358763685232;624.0
1358763690311;622.0
1358763695295;623.0
1358763700326;621.0
1358763705357;355.0
1358763710357;349.0
1358763715357;350.0
1358763720373;351.0
1358763725420;346.0
1358763730420;349.0
1358763735404;349.0
1358763740436;348.0
1358763745420;464.0
1358763750482;467.0
1358763755467;466.0
1358763760561;496.0
1358763765561;464.0
1358763770545;460.0
1358763775561;464.0
1358763780529;465.0
1358763785576;461.0
1358763790592;351.0
1358763795639;364.0
1358763800639;365.0
1358763805701;368.0
1358763810639;368.0
1358763815670;365.0
1358763820748;367.0
1358763825717;368.0
1358763830701;364.0
1358763835811;275.0
1358763840732;277.0
1358763845779;275.0
1358763850842;277.0
1358763855764;277.0
1358763860826;276.0
1358763865826;278.0
1358763870826;277.0
1358763875889;276.0
1358763880920;275.0
1358763885857;275.0
1358763890920;277.0
1358763895967;276.0
1358763901029;275.0
1358763905967;277.0
1358763910951;278.0
1358763915967;279.0
1358763921045;278.0
1358763925998;278.0
1358763931107;278.0
1358763936076;278.0
1358763941076;278.0
1358763946045;277.0
1358763951107;278.0
1358763956154;279.0
1358763961170;275.0
1358763966139;275.0
1358763971170;276.0
1358763976154;275.0
1358763981154;275.0
1358763986170;276.0
1358763991217;275.0
1358763996279;274.0
1358764001232;275.0
1358764006389;276.0
1358764011311;275.0
1358764016342;276.0
1358764021311;274.0
1358764026342;274.0
1358764031357;277.0
1358764036404;276.0
1358764041404;277.0
1358764046420;279.0
1358764051404;277.0
1358764056404;277.0
1358764061482;299.0
1358764066482;470.0
1358764071529;465.0
1358764076467;469.0
1358764081545;469.0
1358764086514;467.0
1358764091639;466.0
1358764096561;470.0
1358764101592;469.0
1358764106639;469.0
1358764111654;467.0
1358764116654;466.0
1358764121607;469.0
1358764126717;469.0
