1355324404143;13.2952
1355324405143;0
1355324405224;15.3574
1355324406224;0
1355324550858;20.4878
1355324551858;0
1355324584202;8.04941
1355324585202;0
1355324611165;10.346
1355324612269;0
1355324630767;6.60675
1355324631767;0
1355324639911;0.231791
1355324640911;0
1355324643978;10.2173
1355324644978;0
1355324650278;43.4211
1355324651278;0
1355324653733;8.68178
1355324654733;0
1355324739442;12.8524
1355324740442;0
1355324763360;14.4861
1355324764800;0
1355324777653;7.34657
1355324778653;0
1355324804416;10.9145
1355324805416;0
1355324821424;0.863873
1355324822424;0
1355324839793;13.7365
1355324840793;0
1355324849619;11.8558
1355324850619;0
1355324862420;8.923
1355324863420;0
1355324988392;2.74886
1355324989392;0
1355324990425;23.9694
1355324991465;0
1355324995644;6.08598
1355324996644;0
1355325056371;6.46364
1355325057371;0
1355325072497;9.15228
1355325073497;0
1355325079338;14.3607
1355325080378;0
1355325082723;6.93028
1355325083723;0
1355325090246;4.97707
1355325091246;0
1355325094783;16.7437
1355325095783;0
1355325095935;50.0031
1355325096935;0
1355325098038;19.7081
1355325099830;0
1355325100813;61.3384
1355325101813;0
1355325185989;7.84744
1355325186989;0
1355325332535;16.2185
1355325333535;0
1355325363404;7.51203
1355325364404;0
1355325399392;17.4565
1355325400392;0
1355325419444;9.28588
1355325420444;0
1355325762056;9.45148
1355325763056;0
1355325764770;8.22405
1355325765770;0
1355325976650;49.9804
1355325977650;0
