1355324431516;7.33602
1355324432516;0
1355324505986;2.19592
1355324506986;0
1355324934996;11.8455
1355324935996;0
1355324990696;4.22467
1355324991696;0
1355325049460;0.536676
1355325050460;0
1355325192360;1.20272
1355325193360;0
1355325193511;6.39619
1355325194511;0
1355325437675;12.0637
1355325438675;0
1355325520227;20.2352
1355325521227;0
1355325522260;1.35125
1355325523260;0
1355325525035;9.52758
1355325526035;0
1355325593485;18.3934
1355325594925;0
1355325647221;4.90072
1355325648221;0
1355325719557;4.27257
1355325720557;0
1355325859482;3.02011
1355325860482;0
1355325902722;5.07017
1355325903722;0
1355325930376;1.55588
1355325932712;0
