1355324907622;7.48147
1355324908622;0
1355325277046;3.20276
1355325278046;0
1355325485732;4.38983
1355325486732;0
1355325618295;1.1365
1355325619106;0.985356
1355325620106;0
1355325683219;0.088199
1355325684219;0
