1355324402234;10
1355324407796;10
1355324645046;10
1355324927609;10
1355324937265;20
1355324950406;10
1355324967937;20
1355325127312;10
1355325128375;10
1355325222953;10
1355325272781;10
1355325431109;30
1355325462890;10
1355325628140;30
1355325759468;10
1355325805906;10
1355325882203;10
1355325915859;10
1355325923015;30
1355325972468;10
