1355324402812;1
1355324417234;1
1355324444062;1
1355324474031;1
1355324504062;1
1355324534078;1
1355324564031;1
1355324593984;1
1355324624046;1
1355324654015;1
1355324686171;1
1355324713968;1
1355324744000;1
1355324774062;1
1355324804046;1
1355324833984;1
1355324863937;1
1355324894046;1
1355324929265;1
1355324953953;1
1355324984109;1
1355325014328;1
1355325043921;1
1355325073968;1
1355325103984;1
1355325135328;1
1355325167109;1
1355325193906;1
1355325223890;1
1355325253968;1
1355325286468;1
1355325314187;1
1355325343875;1
1355325373890;1
1355325403906;1
1355325433859;1
1355325463843;1
1355325493875;1
1355325523890;1
1355325554000;1
1355325583843;1
1355325621765;1
1355325643843;1
1355325673906;1
1355325722640;1
1355325733828;1
1355325763828;1
1355325796875;1
1355325823843;1
1355325862375;1
1355325884109;1
1355325914078;1
1355325943906;1
1355325973781;1
