1355324407515;0
1355324882015;0
1355324882140;98
1355325139078;94
1355325147406;100
1355325153671;83
1355325158468;87
1355325170250;72
1355325171875;74
1355325175171;29
1355325177093;0
1355325177312;0
