1355324412546;1
1355324427328;1
1355324456062;1
1355324486109;1
1355324516125;1
1355324546046;1
1355324577796;1
1355324606093;1
1355324636406;1
1355324666093;1
1355324696015;1
1355324726031;1
1355324756031;1
1355324786203;1
1355324818890;1
1355324846031;1
1355324876015;1
1355324927562;1
1355324935984;1
1355324966218;1
1355325005203;1
1355325026140;1
1355325056015;1
1355325086015;1
1355325116015;1
1355325145968;1
1355325175968;1
1355325205984;1
1355325235953;1
1355325266000;1
1355325295968;1
1355325325937;1
1355325355968;1
1355325385921;1
1355325415968;1
1355325445921;1
1355325478937;1
1355325507203;1
1355325535921;1
1355325565921;1
1355325595875;1
1355325625875;1
1355325655875;1
1355325685890;1
1355325723796;1
1355325746562;1
1355325778687;1
1355325806046;1
1355325857187;1
1355325865859;1
1355325895812;1
1355325925812;1
1355325957187;1
