1355324406984;0
1355324882343;0
1355324882437;98
1355325139328;94
1355325147656;100
1355325153640;83
1355325158609;87
1355325170156;72
1355325172031;74
1355325175421;29
1355325177281;0
1355325177828;0
