1355324403687;0
1355324515625;0
1355324515703;98
1355324645156;0
1355324645250;0
1355324653312;0
1355324653437;98
1355324869625;0
1355324869765;0
1355325026796;0
1355325026984;98
1355325128453;0
1355325128546;0
