1355146656916;4.24405
1355146657916;0
1355146673635;41.1784
1355146674635;0
1355147082258;8.14018
1355147083258;0
1355147192708;4.10599
1355147193708;0
1355147239078;3.88743
1355147240078;0
1355147246722;3.63937
1355147247722;0
1355147251394;5.74677
1355147252394;0
1355147252744;38.4716
1355147253744;0
1355147271493;7.63469
1355147272493;0
1355147299305;0.170057
1355147300305;0
1355147338353;0.537105
1355147339353;0
1355147361643;7.899
1355147362523;62.9217
1355147363611;0
1355147387765;5.57701
1355147388765;0
1355147400690;16.3875
1355147401301;2.05888
1355147402301;0
1355147417608;62.5263
1355147418632;0
1355147428573;4.13692
1355147429573;0
1355147433915;12.387
1355147434915;0
1355147475674;14.1104
1355147476674;0
1355147479666;5.77692
1355147480666;0
1355147603921;8.55978
1355147604921;0
1355147642228;1.30724
1355147643228;0
1355147663678;21.2401
1355147664894;0
1355147669770;7.53052
1355147670770;0
1355147670851;45.194
1355147671851;0
1355147790926;27.3039
1355147792366;0
1355147819648;20.9358
1355147820648;0
1355147824250;19.9576
1355147825250;0
1355147831224;11.2516
1355147832296;0
1355147864799;5.85843
1355147865799;0
1355147932829;6.30831
1355147933829;0
1355147945014;5.16786
1355147946070;0
1355147946975;6.54255
1355147947975;0
1355148084106;18.8939
1355148085386;0
1355148090399;10.8596
1355148091399;0
1355148092360;13.4865
1355148093360;0
1355148124504;0.820469
1355148125504;0
1355148131748;0.063536
1355148132748;0
1355148137090;22.3974
1355148138274;0
1355148152047;4.37796
1355148153047;0
1355148155498;17.3661
1355148158122;0
1355148157329;3.95027
1355148158329;0
1355148162201;29.331
1355148164889;0
1355148181630;8.03188
1355148182630;0
1355148335860;6.46064
1355148336860;0
1355148415105;26.6815
1355148415375;3.06767
1355148416375;0
