1355146637537;1
1355147395254;98
1355147629970;100
1355147633173;100
1355147636658;89
1355147640971;100
1355147641284;100
1355147649878;1
1355147654207;1
1355147937054;98
1355148148814;0
1355148148908;0
1355148342509;0
1355148342744;98
