1355146638349;1064.9600830078125
1355146666274;1064.9700927734375
1355146729641;1064.9801025390625
1355146814667;1065.0001220703125
1355146823481;1065.0101318359375
1355146827591;1065.02001953125
1355146834139;1065.030029296875
1355146840452;1065.050048828125
1355146853391;1065.06005859375
1355146879394;1065.070068359375
1355146885723;1065.080078125
1355146898678;1065.10009765625
1355146950481;1065.130126953125
1355146956919;1065.1600341796875
1355146976281;1065.1700439453125
1355146982750;1065.1800537109375
1355146995643;1065.1900634765625
1355147002096;1065.2000732421875
1355147015036;1065.2100830078125
1355147021489;1065.2200927734375
1355147034413;1065.2301025390625
1355147043070;1065.27001953125
1355147047368;1065.280029296875
1355147056103;1065.300048828125
1355147079668;1065.31005859375
1355147086138;1065.320068359375
1355147105531;1065.330078125
1355147118392;1065.340087890625
1355147131331;1065.35009765625
1355147137800;1065.3701171875
1355147183103;1065.3900146484375
1355147192557;1065.4000244140625
1355147196417;1065.4300537109375
1355147208997;1065.4400634765625
1355147234812;1065.4500732421875
1355147247689;1065.4600830078125
1355147260722;1065.4700927734375
1355147267019;1065.4801025390625
1355147273473;1065.4901123046875
1355147292897;1065.5001220703125
1355147299336;1065.52001953125
1355147312259;1065.5400390625
1355147321713;1065.550048828125
1355147325151;1065.56005859375
1355147331637;1065.570068359375
1355147351139;1065.580078125
1355147376955;1065.590087890625
1355147402755;1065.610107421875
1355147409208;1065.630126953125
1355147433602;1065.6500244140625
1355147434149;1065.6600341796875
1355147441556;1065.6700439453125
1355147454495;1065.6800537109375
1355147473841;1065.6900634765625
1355147480295;1065.7000732421875
1355147486765;1065.7100830078125
1355147551695;1065.7200927734375
1355147560977;1065.7401123046875
1355147564477;1065.7501220703125
1355147584917;1065.7601318359375
1355147695259;1065.77001953125
1355147706776;1065.780029296875
1355147713230;1065.800048828125
1355147726169;1065.81005859375
1355147752047;1065.820068359375
1355147780488;1065.840087890625
1355147784363;1065.860107421875
1355147805585;1065.8701171875
1355147810257;1065.880126953125
1355147816711;1065.8900146484375
1355147843652;1065.9000244140625
1355147844199;1065.9100341796875
1355147849043;1065.9200439453125
1355147913692;1065.9300537109375
1355147926615;1065.9400634765625
1355147941007;1065.9500732421875
1355147946008;1065.9700927734375
1355147958900;1065.9801025390625
1355147984747;1065.9901123046875
1355148010610;1066.0101318359375
1355148017095;1066.02001953125
1355148023533;1066.050048828125
1355148031284;1066.06005859375
1355148036503;1066.070068359375
1355148049411;1066.080078125
1355148068820;1066.090087890625
1355148126999;1066.10009765625
1355148139907;1066.1201171875
1355148149002;1066.130126953125
1355148224683;1066.1400146484375
1355148231152;1066.1500244140625
1355148244076;1066.1700439453125
1355148289472;1066.1800537109375
1355148363621;1066.1900634765625
1355148386499;1066.2100830078125
1355148392984;1066.2200927734375
1355148399548;1066.2401123046875
1355148421847;1066.2501220703125
1355148425301;1066.2601318359375
