1355146636427;1
1355146656914;1
1355146687246;1
1355146728657;1
1355146746894;1
1355146776882;1
1355146806916;1
1355146836920;1
1355146867455;1
1355146896896;1
1355146926884;1
1355146957013;1
1355146986891;1
1355147018520;1
1355147046930;1
1355147076887;1
1355147106875;1
1355147136925;1
1355147166898;1
1355147196917;1
1355147226889;1
1355147256909;1
1355147286881;1
1355147316869;1
1355147346873;1
1355147376892;1
1355147406927;1
1355147436899;1
1355147466887;1
1355147498876;1
1355147533036;1
1355147556898;1
1355147589887;1
1355147620000;1
1355147647019;1
1355147677054;1
1355147706854;1
1355147736873;1
1355147766877;1
1355147796865;1
1355147843808;1
1355147856841;1
1355147886845;1
1355147916848;1
1355147946852;1
1355147976856;1
1355148006844;1
1355148036847;1
1355148066882;1
1355148105903;1
1355148126874;1
1355148178099;1
1355148187866;1
1355148216838;1
1355148249936;1
1355148276861;1
1355148306864;1
1355148336868;1
1355148366841;1
1355148397563;1
1355148426848;1
