1355146638646;2.619999647140503
1355146638677;2.629999876022339
1355146643615;2.619999647140503
1355146648616;2.619999647140503
1355146653726;2.609999656677246
1355146658680;1.7199995517730713
1355146663712;1.7199995517730713
1355146668743;1.7199995517730713
1355146673744;1.7199995517730713
1355146678729;1.7299997806549072
1355146686746;1.7299997806549072
1355146688746;1.8399996757507324
1355146693793;1.809999704360962
1355146698903;1.7999999523162842
1355146724860;1.7999999523162842
1355146725141;1.7999999523162842
1355146728579;1.7999999523162842
1355146729048;1.7999999523162842
1355146729579;2.2199995517730713
1355146730032;2.2199995517730713
1355146733954;2.2199995517730713
1355146741955;2.2199995517730713
1355146744049;2.2199995517730713
1355146749081;2.2299997806549072
1355146754035;2.2199995517730713
1355146759051;2.2199995517730713
1355146764036;1.7999999523162842
1355146769115;1.7999999523162842
1355146774131;1.7999999523162842
1355146779163;2.119999647140503
1355146784179;2.109999656677246
1355146789133;2.119999647140503
1355146794165;2.109999656677246
1355146799166;2.119999647140503
1355146804182;2.109999656677246
1355146809198;2.109999656677246
1355146814261;2.119999647140503
1355146819309;2.109999656677246
1355146824278;2.109999656677246
1355146829294;2.119999647140503
1355146834357;2.119999647140503
1355146839295;2.109999656677246
1355146844390;2.109999656677246
1355146852313;2.109999656677246
1355146854391;2.059999704360962
1355146859454;2.119999647140503
1355146867393;2.119999647140503
1355146869424;2.119999647140503
1355146874472;2.109999656677246
1355146879519;2.119999647140503
1355146884473;2.119999647140503
1355146889505;2.119999647140503
1355146894474;2.119999647140503
1355146899475;2.119999647140503
1355146904506;2.119999647140503
1355146909616;2.129999876022339
1355146920571;2.119999647140503
1355146920962;2.119999647140503
1355146924681;2.119999647140503
1355146929635;2.119999647140503
1355146934729;2.119999647140503
1355146939683;2.119999647140503
1355146944683;2.119999647140503
1355146949637;2.119999647140503
1355146954684;2.119999647140503
1355146959685;2.119999647140503
1355146964842;2.119999647140503
1355146969718;2.119999647140503
1355146974828;2.109999656677246
1355146979781;2.119999647140503
1355146984813;2.119999647140503
1355146989829;2.119999647140503
1355146994814;2.119999647140503
1355146999862;2.129999876022339
1355147004878;2.119999647140503
1355147009910;2.129999876022339
1355147014942;2.129999876022339
1355147019942;2.119999647140503
1355147024927;2.119999647140503
1355147029975;2.119999647140503
1355147035054;2.119999647140503
1355147042976;2.119999647140503
1355147044992;2.119999647140503
1355147050055;2.119999647140503
1355147056494;2.119999647140503
1355147060041;2.119999647140503
1355147065104;2.129999876022339
1355147070058;2.119999647140503
1355147075105;2.119999647140503
1355147080200;2.119999647140503
1355147085153;2.119999647140503
1355147090154;2.549999952316284
1355147095170;1.5599998235702515
1355147100155;1.5499999523162842
1355147105171;1.5499999523162842
1355147110266;1.5599998235702515
1355147115235;1.5599998235702515
1355147120283;1.5499999523162842
1355147125283;1.5499999523162842
1355147130362;1.5499999523162842
1355147135331;1.5499999523162842
1355147140332;1.5499999523162842
1355147147239;1.5499999523162842
1355147151318;1.5399999618530273
1355147155334;1.5399999618530273
1355147163366;1.5499999523162842
1355147165429;1.5399999618530273
1355147173399;1.5399999618530273
1355147175399;1.5499999523162842
1355147180415;1.5399999618530273
1355147185447;1.5399999618530273
1355147195917;1.5399999618530273
1355147196354;1.5499999523162842
1355147200480;1.5399999618530273
1355147205527;1.5499999523162842
1355147210653;1.5499999523162842
1355147215576;1.5399999618530273
1355147220795;1.5399999618530273
1355147225733;1.5399999618530273
1355147230624;1.5499999523162842
1355147235687;1.5499999523162842
1355147240657;1.5499999523162842
1355147245704;1.5399999618530273
1355147253611;1.5499999523162842
1355147255815;1.5499999523162842
1355147260815;1.5499999523162842
1355147265800;1.5499999523162842
1355147270723;1.5499999523162842
1355147275723;1.5499999523162842
1355147280755;1.5499999523162842
1355147285803;1.5499999523162842
1355147290788;1.5499999523162842
1355147295804;1.5499999523162842
1355147300852;1.5499999523162842
1355147305899;1.5499999523162842
1355147310931;1.5499999523162842
1355147315931;1.5499999523162842
1355147322214;1.5499999523162842
1355147325980;1.5499999523162842
1355147330933;1.5599998235702515
1355147335996;1.5499999523162842
1355147340935;1.5599998235702515
1355147345966;1.5499999523162842
1355147351076;1.5499999523162842
1355147356093;1.5499999523162842
1355147361078;1.5599998235702515
1355147366031;1.5499999523162842
1355147371079;1.5499999523162842
1355147376079;1.5499999523162842
1355147381111;1.5499999523162842
1355147386174;1.2099997997283936
1355147391206;1.2099997997283936
1355147396160;1.2099997997283936
1355147401161;1.4899998903274536
1355147406177;1.4799998998641968
1355147432352;1.4799998998641968
1355147432946;1.4899998903274536
1355147433540;1.4699997901916504
1355147434086;1.4699997901916504
1355147434540;1.4699997901916504
1355147436337;1.4699997901916504
1355147441400;1.4699997901916504
1355147446338;1.4699997901916504
1355147451370;1.4699997901916504
1355147456355;1.4799998998641968
1355147461371;1.4799998998641968
1355147466450;1.4799998998641968
1355147471404;1.4799998998641968
1355147476435;1.4799998998641968
1355147481483;1.4799998998641968
1355147486421;1.4799998998641968
1355147491437;1.4799998998641968
1355147498797;1.4699997901916504
1355147501548;1.4799998998641968
1355147506580;1.4799998998641968
1355147531895;1.4699997901916504
1355147532223;1.809999704360962
1355147532552;1.809999704360962
1355147532958;1.809999704360962
1355147533458;1.809999704360962
1355147539568;1.7999999523162842
1355147541678;1.809999704360962
1355147546741;1.809999704360962
1355147551757;1.809999704360962
1355147556773;1.809999704360962
1355147561727;1.809999704360962
1355147566759;1.809999704360962
1355147571759;1.809999704360962
1355147576807;1.809999704360962
1355147584730;1.809999704360962
1355147586839;1.809999704360962
1355147591809;1.809999704360962
1355147596856;1.809999704360962
1355147601841;1.809999704360962
1355147606857;1.809999704360962
1355147611936;1.809999704360962
1355147616937;1.809999704360962
1355147621937;1.809999704360962
1355147629923;1.8199996948242188
1355147636549;1.4799998998641968
1355147637221;1.4899998903274536
1355147641956;1.4899998903274536
1355147647066;1.4799998998641968
1355147652004;1.279999852180481
1355147660739;1.2099997997283936
1355147662036;1.2099997997283936
1355147667099;1.2099997997283936
1355147672147;1.2099997997283936
1355147677194;1.2099997997283936
1355147685086;1.2099997997283936
1355147687117;1.2099997997283936
1355147695165;1.2099997997283936
1355147697165;1.1999999284744263
1355147702182;1.1899999380111694
1355147707213;1.1999999284744263
1355147712230;1.1999999284744263
1355147717199;1.1899999380111694
1355147725216;1.1899999380111694
1355147730263;1.1899999380111694
1355147732310;1.1899999380111694
1355147737358;1.1899999380111694
1355147742327;1.1899999380111694
1355147750312;1.1999999284744263
1355147752469;1.1899999380111694
1355147757360;1.1999999284744263
1355147762376;1.1899999380111694
1355147767486;1.1999999284744263
1355147772393;1.1999999284744263
1355147780410;1.1899999380111694
1355147782660;1.1899999380111694
1355147787426;1.2099997997283936
1355147792505;1.1999999284744263
1355147800272;1.1999999284744263
1355147805507;1.2099997997283936
1355147807554;1.2099997997283936
1355147812492;1.1999999284744263
1355147817617;1.2099997997283936
1355147843574;1.1999999284744263
1355147844136;1.1999999284744263
1355147847699;1.2099997997283936
1355147848356;1.1999999284744263
1355147848949;1.5499999523162842
1355147849559;1.9599997997283936
1355147852684;1.9599997997283936
1355147857638;1.9599997997283936
1355147862654;1.9499998092651367
1355147867670;1.9599997997283936
1355147872796;1.9499998092651367
1355147877765;1.9499998092651367
1355147882750;1.6499998569488525
1355147887814;1.5399999618530273
1355147892783;1.5399999618530273
1355147900815;1.5399999618530273
1355147902831;1.5499999523162842
1355147907878;1.5599998235702515
1355147912832;1.5599998235702515
1355147917880;1.5499999523162842
1355147922880;1.5599998235702515
1355147927943;1.5599998235702515
1355147932928;1.5499999523162842
1355147940929;2.2899997234344482
1355147943070;2.619999647140503
1355147948008;3.779999256134033
1355147953040;3.779999256134033
1355147958072;3.779999256134033
1355147963041;3.7699995040893555
1355147967995;3.7699995040893555
1355147973043;3.779999256134033
1355147978074;2.879999876022339
1355147983106;2.879999876022339
1355147988076;2.879999876022339
1355147993154;2.879999876022339
1355147998202;2.879999876022339
1355148006172;2.869999647140503
1355148008203;2.879999876022339
1355148013188;2.879999876022339
1355148021048;2.879999876022339
1355148023346;2.869999647140503
1355148031190;2.879999876022339
1355148033316;2.879999876022339
1355148038316;2.879999876022339
1355148043301;2.879999876022339
1355148048255;2.879999876022339
1355148053365;2.8899996280670166
1355148058381;2.879999876022339
1355148063335;2.879999876022339
1355148068367;2.879999876022339
1355148073414;2.879999876022339
1355148078634;2.879999876022339
1355148104684;2.879999876022339
1355148105059;2.879999876022339
1355148105731;2.8899996280670166
1355148106199;3.789999008178711
1355148106809;3.799999713897705
1355148108497;4.549999713897705
1355148113528;4.549999713897705
1355148124467;4.549999713897705
1355148124858;4.539999008178711
1355148128577;4.539999008178711
1355148133562;4.549999713897705
1355148138610;3.6399993896484375
1355148143626;3.6399993896484375
1355148149439;2.5199995040893555
1355148157049;2.5199995040893555
1355148179333;2.5199995040893555
1355148180099;2.5299997329711914
1355148180521;2.5199995040893555
1355148181021;2.5299997329711914
1355148184412;2.5199995040893555
1355148187803;2.5299997329711914
1355148188881;2.5299997329711914
1355148193898;2.5299997329711914
1355148198773;2.5299997329711914
1355148203789;2.5299997329711914
1355148208868;2.5199995040893555
1355148213947;2.5199995040893555
1355148221870;2.5199995040893555
1355148223886;2.5199995040893555
1355148228886;2.5199995040893555
1355148233918;2.5199995040893555
1355148242060;2.5099997520446777
1355148243982;2.5199995040893555
1355148250295;2.5099997520446777
1355148253952;2.5199995040893555
1355148261906;2.5099997520446777
1355148264094;2.5099997520446777
1355148272032;2.5099997520446777
1355148274048;2.5099997520446777
1355148279111;2.5099997520446777
1355148284080;2.5099997520446777
1355148289097;2.5099997520446777
1355148294113;2.5099997520446777
1355148299207;2.5099997520446777
1355148304177;2.5199995040893555
1355148309193;2.5099997520446777
1355148317131;2.5099997520446777
1355148319225;2.5099997520446777
1355148324195;2.5099997520446777
1355148335259;2.5099997520446777
1355148335665;2.5099997520446777
1355148339384;2.5199995040893555
1355148344338;2.5199995040893555
1355148349417;2.879999876022339
1355148354323;2.879999876022339
1355148359418;2.879999876022339
1355148364512;2.869999647140503
1355148369356;2.879999876022339
1355148374373;2.869999647140503
1355148379467;2.879999876022339
1355148384452;2.879999876022339
1355148389484;2.879999876022339
1355148397500;2.879999876022339
1355148399485;2.869999647140503
1355148406783;2.879999876022339
1355148412674;2.879999876022339
1355148414534;2.8899996280670166
1355148422363;2.879999876022339
1355148424629;2.879999876022339
