1355146636708;91.0
1355146663571;91.0
1355146729266;91.0
1355146783664;91.0
1355146843687;91.0
1355146903819;91.0
1355146963811;91.0
1355147023818;91.0
1355147083903;91.0
1355147146880;91.0
1355147203996;91.0
1355147264066;91.0
1355147324073;91.0
1355147384143;91.0
1355147444213;91.0
1355147504158;91.0
1355147564321;91.0
1355147624391;91.0
1355147685164;94.0
1355147744546;94.0
1355147805679;91.0
1355147864748;91.0
1355147924865;91.0
1355147984919;91.0
1355148045005;91.0
1355148107278;91.0
1355148180193;94.0
1355148225245;94.0
1355148285268;94.0
1355148345354;94.0
1355148406845;94.0
