1355146637068;20.54
1355146638568;20.52
1355146698560;20.54
1355146758661;20.56
1355146818684;20.56
1355146878738;20.56
1355146938761;20.580000000000002
1355146998830;20.580000000000002
1355147058853;20.6
1355147118986;20.6
1355147178962;20.62
1355147239016;20.62
1355147299054;20.64
1355147359187;20.64
1355147433133;20.66
1355147479201;20.68
1355147539662;20.7
1355147599388;20.68
1355147661067;20.7
1355147719559;20.7
1355147780644;20.72
1355147848543;20.740000000000002
1355147900956;20.72
1355147959916;20.72
1355148021189;20.7
1355148101152;20.7
1355148140110;20.68
1355148200180;20.7
1355148261968;20.66
1355148320241;20.66
1355148380280;20.66
