1355146636724;1
1355147395379;98
1355147633064;100
1355147636799;89
1355147641112;100
1355147641393;100
1355147649753;1
1355147657332;1
1355147937148;98
1355148148361;0
1355148148689;0
1355148342619;0
1355148342853;98
