1355146637693;1
1355147395316;98
1355147630017;100
1355147633220;100
1355147636720;89
1355147641049;100
1355147641330;100
1355147649941;1
1355147654301;1
1355147937116;98
1355148148861;0
1355148148955;0
1355148342572;0
1355148342791;98
