1355215082670;6.37452
1355215083670;0
1355215123334;3.95513
1355215124334;0
1355215214146;36.1512
1355215215146;0
1355215280798;39.9837
1355215281798;0
1355215284110;38.1978
1355215285110;0
1355215357064;8.31503
1355215358064;0
1355215401859;0.499971
1355215402859;0
1355215421956;1.8052
1355215422956;0
1355215461610;1.6495
1355215462610;0
1355215495441;0.657361
1355215496441;0
1355215533684;11.7592
1355215535636;0
1355215587082;2.72741
1355215591322;0
1355215592294;3.32503
1355215593294;0
1355215597436;2.36821
1355215598436;0
1355215627076;11.9632
1355215628076;0
1355215648863;0.486382
1355215649863;0
1355215669230;14.8475
1355215670230;0
1355215753078;3.68151
1355215754078;0
1355215755109;4.75179
1355215756109;0
1355215813369;16.7425
1355215814369;0
1355216010626;0.0154573
1355216011626;0
1355216044458;2.03932
1355216046666;0
1355216339458;3.51722
1355216340458;0
1355216360445;44.9755
1355216363917;0
1355216452886;0.0888672
1355216453886;0
1355216867016;4.85756
1355216868016;0
