1355215017979;1.7911
1355215018979;0
1355215313490;4.11025
1355215314490;0
1355215364917;48.9838
1355215365917;0
1355215400239;47.0257
1355215401239;0
1355215588232;36.1176
1355215589043;35.3077
1355215590043;0
1355215719777;2.12376
1355215720777;0
1355215748137;5.92008
1355215749137;0
1355215759981;5.64359
1355215760981;0
1355215769654;2.81338
1355215770654;0
1355216090213;5.54957
1355216091213;0
1355216151244;5.27729
1355216152300;0
1355216254719;14.4865
1355216255719;0
1355216271915;22.9914
1355216272455;6.21302
1355216273455;0
1355216273675;24.643
1355216274675;0
1355216275296;4.7992
1355216276296;0
1355216297233;14.2651
1355216298233;0
1355216303866;16.0347
1355216304866;0
1355216310428;9.45197
1355216311628;0
1355216342839;47.1522
1355216343649;43.271
1355216344649;0
1355216347370;44.0718
1355216350362;0
1355216358064;8.80205
1355216359064;0
1355216359564;50.8759
1355216360564;0
1355216361255;0.722862
1355216362567;0
1355216367017;47.0596
1355216368017;0
1355216391915;1.7445
1355216392915;0
1355216680174;2.1868
1355216681174;0
1355216682555;4.37782
1355216683555;0
1355216685126;0.0511984
1355216686126;0
1355216700281;2.69294
1355216701281;0
1355216716116;9.39169
1355216717116;0
1355216850570;26.6563
1355216851722;0
1355216865866;2.75358
1355216866866;0
