1355214974482;0.0
1355214988826;0.0
1355215016638;0.0
1355215046607;2.0
1355215076654;4.0
1355215106654;6.0
1355215136607;5.0
1355215166638;6.0
1355215196591;6.0
1355215226607;5.0
1355215263623;5.0
1355215286560;5.0
1355215316685;5.0
1355215346654;7.0
1355215376716;0.0
1355215406544;0.0
1355215436544;0.0
1355215466529;0.0
1355215496529;0.0
1355215526560;0.0
1355215556529;0.0
1355215586513;0.0
1355215616513;0.0
1355215646513;0.0
1355215676498;6.0
1355215719404;3.0
1355215736529;6.0
1355215766498;6.0
1355215796482;6.0
1355215826498;0.0
1355215856482;0.0
1355215886498;0.0
1355215916466;0.0
1355215946482;0.0
1355215994919;0.0
1355216006451;0.0
1355216036435;0.0
1355216066435;3.0
1355216112513;3.0
1355216131607;3.0
1355216156435;3.0
1355216186435;3.0
1355216216404;3.0
1355216246638;3.0
1355216276419;3.0
1355216306388;3.0
1355216337982;3.0
1355216366388;3.0
1355216396685;3.0
1355216426373;3.0
1355216456388;3.0
1355216486388;3.0
1355216518451;3.0
1355216548654;3.0
1355216576419;3.0
1355216606373;3.0
1355216636341;3.0
1355216666326;3.0
1355216696326;3.0
1355216726310;3.0
1355216756357;3.0
1355216789529;3.0
1355216816482;3.0
1355216849404;3.0
1355216876451;3.0
