1355214974544;10
1355214978888;30
1355215390029;10
1355215506466;20
1355215517654;10
1355215866466;10
1355215918701;10
1355216109044;30
1355216116482;10
1355216338107;30
1355216469623;10
1355216527388;10
1355216831919;30
1355216873685;10
1355216899404;30
