1355214974544;22.16
1355215042513;22.18
1355215162529;22.22
1355215282498;22.26
1355215402529;22.28
1355215522466;22.32
1355215645654;22.34
1355215762451;22.36
1355215882451;22.4
1355216002404;22.44
1355216131138;22.44
1355216246169;22.46
1355216362357;22.48
1355216483388;22.48
1355216602357;22.5
1355216722310;22.54
1355216842341;22.58
