1355214974998;226.0
1355214978669;226.0
1355214980435;226.0
1355214988701;225.0
1355214990451;225.0
1355214995513;225.0
1355215000529;226.0
1355215005576;225.0
1355215010560;225.0
1355215015591;225.0
1355215020638;225.0
1355215025638;226.0
1355215030607;226.0
1355215035654;226.0
1355215040669;225.0
1355215045669;226.0
1355215050685;226.0
1355215055669;226.0
1355215060654;226.0
1355215068685;226.0
1355215070826;226.0
1355215075810;226.0
1355215080826;226.0
1355215085779;226.0
1355215090794;227.0
1355215095841;226.0
1355215100919;226.0
1355215105841;226.0
1355215110857;225.0
1355215115857;225.0
1355215120888;226.0
1355215125888;226.0
1355215131263;226.0
1355215135951;226.0
1355215140998;227.0
1355215145998;227.0
1355215154060;227.0
1355215156029;227.0
1355215161029;227.0
1355215166044;228.0
1355215171060;227.0
1355215176076;227.0
1355215181044;227.0
1355215186107;227.0
1355215191107;228.0
1355215196216;227.0
1355215201185;227.0
1355215206201;228.0
1355215211216;227.0
1355215216216;227.0
1355215221216;226.0
1355215226232;226.0
1355215231279;227.0
1355215236263;227.0
1355215241294;226.0
1355215262685;226.0
1355215262998;228.0
1355215263498;227.0
1355215263919;228.0
1355215269388;227.0
1355215271388;228.0
1355215276466;227.0
1355215281388;228.0
1355215286388;227.0
1355215291435;227.0
1355215296419;227.0
1355215301513;227.0
1355215306466;227.0
1355215311529;227.0
1355215316560;227.0
1355215321482;226.0
1355215326685;226.0
1355215331576;226.0
1355215336638;226.0
1355215341607;226.0
1355215346607;226.0
1355215351638;226.0
1355215356607;227.0
1355215361669;227.0
1355215366701;227.0
1355215371701;227.0
1355215376826;227.0
1355215381794;227.0
1355215389810;227.0
1355215391779;226.0
1355215396763;227.0
1355215401810;227.0
1355215406810;227.0
1355215411841;227.0
1355215416810;227.0
1355215421904;227.0
1355215426888;227.0
1355215431919;226.0
1355215436982;226.0
1355215441873;226.0
1355215446951;225.0
1355215451998;226.0
1355215456951;226.0
1355215462029;226.0
1355215467013;226.0
1355215472060;227.0
1355215477060;227.0
1355215482060;227.0
1355215487107;227.0
1355215492076;227.0
1355215497060;226.0
1355215502123;227.0
1355215507138;227.0
1355215512154;227.0
1355215517201;227.0
1355215522216;227.0
1355215527201;227.0
1355215532248;227.0
1355215537326;226.0
1355215542326;226.0
1355215547310;226.0
1355215552279;226.0
1355215557326;226.0
1355215562279;226.0
1355215567404;226.0
1355215572357;226.0
1355215577388;227.0
1355215582419;227.0
1355215587404;226.0
1355215592388;227.0
1355215597466;227.0
1355215602466;227.0
1355215607435;227.0
1355215615404;227.0
1355215620513;227.0
1355215622576;227.0
1355215627576;227.0
1355215632607;227.0
1355215637623;227.0
1355215645701;226.0
1355215647607;226.0
1355215652654;226.0
1355215657654;225.0
1355215662716;225.0
1355215667623;226.0
1355215675669;226.0
1355215677669;226.0
1355215682748;228.0
1355215687716;228.0
1355215692732;227.0
1355215718748;227.0
1355215719201;227.0
1355215719607;227.0
1355215720107;227.0
1355215723466;227.0
1355215723794;227.0
1355215727935;227.0
1355215732935;227.0
1355215737888;226.0
1355215742873;227.0
1355215747935;227.0
1355215752951;226.0
1355215760966;226.0
1355215762951;226.0
1355215768060;225.0
1355215773013;226.0
1355215777998;226.0
1355215783013;226.0
1355215788029;226.0
1355215793326;225.0
1355215798123;227.0
1355215803060;226.0
1355215808107;227.0
1355215813123;227.0
1355215818248;227.0
1355215823185;227.0
1355215828185;227.0
1355215833201;227.0
1355215838185;228.0
1355215843201;227.0
1355215851263;228.0
1355215853248;227.0
1355215858279;228.0
1355215863310;227.0
1355215868294;227.0
1355215873310;226.0
1355215878326;226.0
1355215883388;226.0
1355215888326;226.0
1355215893373;226.0
1355215898419;226.0
1355215903357;226.0
1355215908482;227.0
1355215913451;227.0
1355215918482;227.0
1355215923451;227.0
1355215932873;227.0
1355215933498;227.0
1355215938513;226.0
1355215943529;226.0
1355215948544;226.0
1355215953576;226.0
1355215958873;227.0
1355215963623;227.0
1355215968607;227.0
1355215994763;227.0
1355215995154;226.0
1355215995716;227.0
1355215996044;225.0
1355215996544;225.0
1355215998716;226.0
1355216003701;226.0
1355216008716;226.0
1355216013810;225.0
1355216021701;225.0
1355216023763;226.0
1355216028857;226.0
1355216033810;226.0
1355216038888;226.0
1355216046841;226.0
1355216048951;226.0
1355216053904;226.0
1355216058904;226.0
1355216063951;226.0
1355216068935;226.0
1355216076951;227.0
1355216079013;226.0
1355216108482;226.0
1355216108857;226.0
1355216112373;226.0
1355216112763;225.0
1355216113248;225.0
1355216113763;225.0
1355216114263;225.0
1355216130904;225.0
1355216131435;224.0
1355216131888;225.0
1355216134138;224.0
1355216139138;225.0
1355216144232;225.0
1355216149169;225.0
1355216154185;226.0
1355216159232;226.0
1355216164279;225.0
1355216169294;225.0
1355216174263;226.0
1355216179326;225.0
1355216184326;225.0
1355216189310;226.0
1355216194310;226.0
1355216202357;226.0
1355216204388;226.0
1355216209357;226.0
1355216214388;225.0
1355216219419;225.0
1355216241857;225.0
1355216242248;225.0
1355216242669;224.0
1355216245982;225.0
1355216246435;225.0
1355216249513;226.0
1355216254529;226.0
1355216259560;226.0
1355216267638;226.0
1355216269544;226.0
1355216275904;226.0
1355216279576;226.0
1355216284607;227.0
1355216289623;226.0
1355216294685;226.0
1355216299685;227.0
1355216304810;227.0
1355216309732;226.0
1355216314779;225.0
1355216322763;226.0
1355216324794;225.0
1355216329794;225.0
1355216337794;226.0
1355216339794;225.0
1355216344857;225.0
1355216349873;225.0
1355216354841;226.0
1355216359857;226.0
1355216364888;227.0
1355216369982;226.0
1355216374919;227.0
1355216379919;227.0
1355216384904;227.0
1355216390013;227.0
1355216394966;226.0
1355216402982;226.0
1355216406716;227.0
1355216410044;226.0
1355216415029;227.0
1355216420029;227.0
1355216425076;226.0
1355216430076;225.0
1355216435169;227.0
1355216440138;226.0
1355216445169;227.0
1355216450201;227.0
1355216455169;226.0
1355216460216;227.0
1355216465216;227.0
1355216470326;227.0
1355216475326;226.0
1355216483232;227.0
1355216485294;227.0
1355216490294;227.0
1355216495326;227.0
1355216500373;227.0
1355216511263;227.0
1355216511638;227.0
1355216518294;227.0
1355216520419;227.0
1355216525357;227.0
1355216533451;227.0
1355216535419;228.0
1355216540451;228.0
1355216545451;228.0
1355216550482;227.0
1355216555482;227.0
1355216560560;227.0
1355216565498;227.0
1355216570560;227.0
1355216575623;227.0
1355216584732;227.0
1355216585607;227.0
1355216590560;226.0
1355216598638;227.0
1355216600638;227.0
1355216605654;227.0
1355216613701;227.0
1355216615669;227.0
1355216620701;227.0
1355216625748;227.0
1355216630716;227.0
1355216635748;227.0
1355216640810;227.0
1355216649748;227.0
1355216650841;227.0
1355216655810;226.0
1355216660810;227.0
1355216665873;227.0
1355216670966;227.0
1355216675919;227.0
1355216680888;227.0
1355216685919;227.0
1355216690951;227.0
1355216695904;226.0
1355216700951;226.0
1355216705982;226.0
1355216710982;227.0
1355216716029;226.0
1355216721029;226.0
1355216726044;227.0
1355216731013;227.0
1355216736107;227.0
1355216741076;227.0
1355216746185;227.0
1355216751076;226.0
1355216756216;226.0
1355216761154;226.0
1355216766169;227.0
1355216771201;227.0
1355216776248;227.0
1355216781216;226.0
1355216789279;226.0
1355216791326;227.0
1355216796279;227.0
1355216801248;227.0
1355216806248;227.0
1355216811279;227.0
1355216816357;226.0
1355216821357;226.0
1355216826357;226.0
1355216831623;227.0
1355216836357;226.0
1355216841388;226.0
1355216849560;226.0
1355216851419;226.0
1355216856451;226.0
1355216861482;226.0
1355216866482;226.0
1355216871513;226.0
1355216876591;227.0
1355216881529;226.0
1355216886544;227.0
1355216891544;227.0
1355216896591;226.0
1355216901560;226.0
