1355737174657;8.81598
1355737174927;3.19937
1355737175927;0
1355737177497;5.68112
1355737178497;0
1355737178577;44.8909
1355737179577;0
1355737227689;15.8496
1355737228689;0
1355737229649;5.36452
1355737230649;0
1355737290811;5.8451
1355737291811;0
1355737308871;8.72723
1355737309871;0
1355737429774;42.7486
1355737430774;0
1355737553237;6.55696
1355737554237;0
1355737692651;41.6601
1355737693651;0
1355737905056;1.70453
1355737906006;41.0396
1355737907006;0
1355737934077;13.2955
1355737934957;45.2845
1355737935957;0
1355738012069;0.884554
1355738013069;0
1355738042850;6.53851
1355738043850;0
1355738105702;42.5352
1355738106702;0
1355738131002;10.5104
1355738132002;0
1355738135332;44.0567
1355738136332;0
1355738137902;5.23806
1355738138902;0
1355738188024;19.8229
1355738189096;0
1355738194654;3.83058
1355738196766;0
1355738197564;7.13373
1355738202284;0
1355738204394;8.64385
1355738211338;0
1355738212174;8.08724
1355738217518;0
1355738218264;7.46141
1355738220344;0
1355738221104;10.2771
1355738222104;0
1355738231925;1.48843
1355738232925;0
1355738258715;14.4392
1355738259715;0
1355738282186;20.0199
1355738283562;0
1355738294226;23.5279
1355738295226;0
1355738319527;5.59899
1355738320527;0
1355738334407;12.3523
1355738335407;0
1355738362298;7.62349
1355738363298;0
1355738365408;7.53399
1355738366592;0
1355738407079;41.0093
1355738408079;0
1355738416349;0.121325
1355738419469;0
1355738669425;20.9698
1355738670545;0
