1355737176328;10
1355737684990;10
1355737720490;10
1355737929053;10
1355737935006;10
1355737937365;10
1355737941068;10
1355737942209;10
1355737946350;10
1355737962396;30
1355737995990;30
1355738008584;10
1355738009084;10
1355738063631;10
1355738068568;10
1355738072100;10
1355738075178;10
1355738078100;10
1355738165021;30
1355738199506;10
1355738310537;10
1355738342928;30
1355738346459;10
1355738515146;10
1355738559412;10
1355738641053;30
1355738691834;10
