1355737175703;20.7
1355737196171;20.72
1355737256234;20.72
1355737316250;20.740000000000002
1355737376281;20.740000000000002
1355737436296;20.76
1355737501131;20.78
1355737561178;20.8
1355737600928;20.82
1355737682975;20.84
1355737720287;20.84
1355737780318;20.86
1355737840365;20.88
1355737900428;20.88
1355737960459;20.88
1355738020553;20.88
1355738080553;20.88
1355738140584;20.86
1355738200709;20.84
1355738260756;20.82
1355738320771;20.8
1355738380818;20.8
1355738440865;20.8
1355738501006;20.8
1355738561053;20.8
1355738621162;20.78
1355738681209;20.8
