1355737176062;1
1355737181281;0
1355737186453;1
1355737613053;0
1355737620318;1
1355737682803;0
1355737723600;1
1355738004850;0
1355738009318;1
1355738195115;0
1355738517365;1
1355738555193;0
1355738694115;1
