1355737175781;5492.0
1355737176921;5492.0
1355737180781;5492.0
1355737185781;5492.0
1355737190796;5492.0
1355737195828;5492.0
1355737200843;5492.0
1355737205843;5492.0
1355737210890;5492.0
1355737215906;5492.0
1355737220921;5492.0
1355737225937;5492.0
1355737230953;5492.0
1355737235937;5492.0
1355737240953;5492.0
1355737246000;5492.0
1355737251015;5492.0
1355737256031;5492.0
1355737261031;5492.0
1355737266046;5492.0
1355737271078;5492.0
1355737276078;5492.0
1355737281093;5492.0
1355737286109;5492.0
1355737291140;5492.0
1355737296156;5492.0
1355737301140;5492.0
1355737306187;5492.0
1355737311187;5492.0
1355737316203;5492.0
1355737321218;5492.0
1355737326250;5492.0
1355737331250;5492.0
1355737336296;5492.0
1355737341312;5492.0
1355737346328;5492.0
1355737351312;5492.0
1355737356375;5492.0
1355737361343;5492.0
1355737366375;5492.0
1355737371390;5492.0
1355737376406;5492.0
1355737381437;5492.0
1355737386421;5492.0
1355737391453;5492.0
1355737396453;5492.0
1355737401500;5492.0
1355737406515;5492.0
1355737411500;5492.0
1355737416531;5492.0
1355737421531;5492.0
1355737426687;5492.0
1355737431562;5492.0
1355737436609;5492.0
1355737441609;5492.0
1355737446609;5492.0
1355737456428;5492.0
1355737461443;5492.0
1355737466443;5492.0
1355737471537;5492.0
1355737476475;5492.0
1355737481506;5492.0
1355737486521;5492.0
1355737491521;5492.0
1355737496553;5492.0
1355737501568;5492.0
1355737506584;5492.0
1355737511600;5492.0
1355737516615;5492.0
1355737521631;5492.0
1355737526646;5492.0
1355737531662;5492.0
1355737536693;5492.0
1355737541693;5492.0
1355737546709;5492.0
1355737551725;5492.0
1355737556756;5492.0
1355737561756;5492.0
1355737566803;5492.0
1355737571803;5492.0
1355737576818;5492.0
1355737581834;5492.0
1355737586834;5492.0
1355737591850;5492.0
1355737596881;5492.0
1355737601881;5492.0
1355737606896;5492.0
1355737611912;5492.0
1355737616959;5492.0
1355737621943;5492.0
1355737626975;5492.0
1355737631975;5492.0
1355737636990;5492.0
1355737642006;5492.0
1355737681568;5492.0
1355737681834;5492.0
1355737682475;5492.0
1355737683037;5492.0
1355737684178;5492.0
1355737685162;5492.0
1355737685553;5492.0
1355737685865;5492.0
1355737687193;5492.0
1355737692178;5492.0
1355737697193;5492.0
1355737702271;5492.0
1355737707209;5492.0
1355737712225;5492.0
1355737717256;5492.0
1355737722271;5492.0
1355737727303;5492.0
1355737732303;5492.0
1355737737303;5492.0
1355737742318;5492.0
1355737747350;5492.0
1355737752350;5492.0
1355737757396;5492.0
1355737762381;5492.0
1355737767428;5492.0
1355737772443;5492.0
1355737777475;5492.0
1355737782475;5492.0
1355737787490;5492.0
1355737792506;5492.0
1355737797506;5492.0
1355737802537;5492.0
1355737812428;5492.0
1355737812834;5492.0
1355737817584;5492.0
1355737822615;5492.0
1355737827600;5492.0
1355737832646;5492.0
1355737837662;5492.0
1355737842662;5492.0
1355737847662;5492.0
1355737852693;5492.0
1355737857725;5492.0
1355737872881;5492.0
1355737873193;5492.0
1355737873553;5492.0
1355737877756;5492.0
1355737882787;5492.0
1355737887818;5492.0
1355737892818;5492.0
1355737897818;5492.0
1355737902850;5492.0
1355737907881;5492.0
1355737912865;5492.0
1355737917896;5492.0
1355737922928;5492.0
1355737927943;5492.0
1355737932943;5492.0
1355737937975;5492.0
1355737942975;5492.0
1355737947990;5492.0
1355737953006;5492.0
1355737958006;5492.0
1355737963037;5492.0
1355737968068;5492.0
1355737973053;5492.0
1355737978068;5492.0
1355737983115;5492.0
1355737988131;5492.0
1355737993146;5492.0
1355737998146;5492.0
1355738003146;5492.0
1355738008162;5492.0
1355738013193;5492.0
1355738018209;5492.0
1355738023209;5492.0
1355738028240;5492.0
1355738033256;5492.0
1355738038303;5492.0
1355738043287;5492.0
1355738048287;5492.0
1355738053318;5492.0
1355738058350;5492.0
1355738063381;5492.0
1355738068381;5492.0
1355738073381;5492.0
1355738078443;5492.0
1355738083428;5492.0
1355738088428;5492.0
1355738093443;5492.0
1355738098459;5492.0
1355738103490;5492.0
1355738108506;5492.0
1355738113521;5492.0
1355738118521;5492.0
1355738123537;5492.0
1355738128568;5492.0
1355738133584;5492.0
1355738138600;5492.0
1355738143600;5492.0
1355738148615;5492.0
1355738153693;5492.0
1355738158646;5492.0
1355738163662;5492.0
1355738168725;5492.0
1355738173693;5492.0
1355738178725;5492.0
1355738183725;5492.0
1355738188740;5492.0
1355738193771;5492.0
1355738198771;5492.0
1355738203787;5492.0
1355738208818;5492.0
1355738213818;5492.0
1355738218834;5492.0
1355738223865;5492.0
1355738228896;5492.0
1355738233881;5492.0
1355738239115;5492.0
1355738243912;5492.0
1355738248928;5492.0
1355738253959;5492.0
1355738259006;5492.0
1355738264006;5492.0
1355738269021;5492.0
1355738274021;5492.0
1355738279021;5492.0
1355738284068;5492.0
1355738289084;5492.0
1355738294068;5492.0
1355738299084;5492.0
1355738304115;5492.0
1355738309146;5492.0
1355738314162;5492.0
1355738319146;5492.0
1355738324178;5492.0
1355738329209;5492.0
1355738334225;5492.0
1355738339240;5492.0
1355738344256;5492.0
1355738349271;5492.0
1355738354271;5492.0
1355738359303;5492.0
1355738364318;5492.0
1355738369318;5492.0
1355738374350;5492.0
1355738379381;5492.0
1355738384365;5492.0
1355738389412;5492.0
1355738394412;5492.0
1355738399428;5492.0
1355738404459;5492.0
1355738409459;5492.0
1355738414475;5492.0
1355738419490;5492.0
1355738424490;5492.0
1355738429553;5492.0
1355738434553;5492.0
1355738439537;5492.0
1355738444553;5492.0
1355738449568;5492.0
1355738454584;5492.0
1355738459600;5492.0
1355738464615;5492.0
1355738469646;5492.0
1355738474678;5492.0
1355738479662;5492.0
1355738484709;5492.0
1355738489709;5492.0
1355738494740;5492.0
1355738499818;5492.0
1355738504756;5492.0
1355738509787;5492.0
1355738514787;5492.0
1355738519834;5492.0
1355738524818;5492.0
1355738529850;5492.0
1355738534850;5492.0
1355738539881;5492.0
1355738544896;5492.0
1355738549912;5492.0
1355738554928;5492.0
1355738559959;5492.0
1355738564959;5492.0
1355738570006;5492.0
1355738574990;5492.0
1355738580006;5492.0
1355738585006;5492.0
1355738590084;5492.0
1355738595037;5492.0
1355738600100;5492.0
1355738605084;5492.0
1355738610084;5492.0
1355738615100;5492.0
1355738620115;5492.0
1355738625146;5492.0
1355738630146;5492.0
1355738635178;5492.0
1355738640209;5492.0
1355738645193;5492.0
1355738650225;5492.0
1355738655256;5492.0
1355738660256;5492.0
1355738665271;5492.0
1355738670303;5492.0
1355738675303;5492.0
1355738680334;5492.0
1355738685365;5492.0
1355738690334;5492.0
1355738695350;5492.0
1355738700365;5492.0
1355738705412;5492.0
1355738710428;5492.0
1355738715459;5492.0
