1355750104481;5.51179
1355750105481;0
1355750106784;11.6706
1355750107735;40.5181
1355750108735;0
1355750123249;2.00635
1355750124130;40.044
1355750125130;0
1355750180743;3.98107
1355750181743;0
1355750182435;3.86689
1355750183435;0
1355750195097;7.6409
1355750196097;0
1355750199361;12.6202
1355750200361;0
1355750327199;19.015
1355750328199;0
1355750338980;4.44202
1355750339980;0
1355750396464;14.8023
1355750397464;0
1355750399647;4.32918
1355750400647;0
1355750403571;10.4846
1355750404571;0
1355750452187;8.59602
1355750453187;0
1355750658962;2.17016
1355750659962;0
1355750663026;4.29679
1355750664026;0
1355750808333;1.06588
1355750809333;0
1355750835699;4.33547
1355750837891;0
1355750838812;9.46306
1355750839812;0
1355750845518;46.2493
1355750846518;0
1355750852895;11.4212
1355750853776;18.3038
1355750854776;0
1355750861563;18.7027
1355750862563;0
1355750863325;42.5118
1355750864325;0
1355750901241;6.09347
1355750904697;0
1355750912952;55.0181
1355750913903;7.45176
1355750914783;10.0843
1355750915783;0
1355750923041;6.93028
1355750924041;0
1355750924122;53.6065
1355750925122;0
1355750931980;17.7674
1355750932980;0
1355750946804;1.13312
1355750947804;0
1355750961838;5.51579
1355750962719;2.17852
1355750963719;0
1355751041464;1.88685
1355751042464;0
1355751042815;40.9872
1355751043815;0
1355751114053;18.5861
1355751115053;0
1355751173909;40.7335
1355751174909;0
1355751215278;23.6928
1355751218926;0
1355751233355;8.9971
1355751234355;0
1355751247909;15.4086
1355751248909;0
1355751249671;5.97373
1355751250671;0
1355751251973;3.51006
1355751252973;0
1355751278988;7.56977
1355751279329;3.80811
1355751280329;0
1355751297886;1.48028
1355751298886;0
1355751308516;42.3628
1355751309516;0
1355751334451;4.28541
1355751335619;0
1355751354219;0.935008
1355751355219;0
1355751372567;7.75871
1355751373567;0
1355751379003;44.3752
1355751380003;0
1355751382656;10.9361
1355751383656;0
1355751392816;57.9799
1355751393816;0
1355751430742;4.37877
1355751431523;45.7638
1355751432523;0
1355751452253;10.0155
1355751454125;0
1355751461802;20.3895
1355751462802;0
1355751468298;0.912297
1355751469298;0
1355751483332;19.5861
1355751484332;0
1355751487530;4.09164
1355751488530;0
1355751505141;40.9591
1355751506141;0
1355751589841;0.824493
1355751590841;0
1355751601622;11.4042
1355751602622;0
1355751604735;4.756
1355751605735;0
1355751606226;21.4746
1355751607226;0
1355751610490;14.7949
1355751611490;0
1355751615975;46.3721
1355751616975;0
1355751621390;0.433373
1355751622390;0
1355751830969;42.0116
1355751831969;0
1355751859947;10.9627
1355751861995;0
1355751865632;9.81079
1355751866632;0
1355751867053;3.31054
1355751870013;0
1355751870847;43.8906
1355751871847;0
1355751872879;51.86
1355751873879;0
1355751878574;6.45368
1355751879574;0
1355751888594;1.53737
1355751889794;0
1355751893879;4.8735
1355751894879;0
1355751903368;50.4229
1355751904368;0
1355751916030;0.0410196
1355751917030;0
1355752401248;6.69395
1355752402248;0
1355752403210;44.3482
1355752404210;0
1355752534545;0.403926
1355752535545;0
1355752595302;9.55026
1355752596302;0
1355752857549;6.51393
1355752858549;0
