1355749742303;0
1355750176475;0
1355750176537;98
1355751131568;0
1355751131631;0
1355751351318;0
1355751351381;98
1355751516271;0
1355751516803;0
1355751769006;0
1355751769131;98
1355751781396;0
1355751781506;0
1355751783709;0
1355751783834;98
