1355749742803;1.0
1355749746678;1.0
1355749776646;1.0
1355749806646;0.0
1355749836631;0.0
1355749866662;0.0
1355749896615;0.0
1355749926631;0.0
1355749956646;0.0
1355749986631;0.0
1355750016646;0.0
1355750046725;0.0
1355750076600;0.0
1355750106600;0.0
1355750136584;0.0
1355750166615;1.0
1355750196568;6.0
1355750226568;6.0
1355750256553;5.0
1355750286553;5.0
1355750316568;5.0
1355750346553;5.0
1355750376521;5.0
1355750406553;5.0
1355750436537;5.0
1355750466553;5.0
1355750496506;5.0
1355750526521;5.0
1355750556506;6.0
1355750586521;6.0
1355750616490;6.0
1355750646506;6.0
1355750676506;6.0
1355750706490;6.0
1355750736475;6.0
1355750766475;6.0
1355750796459;5.0
1355750826475;5.0
1355750856459;4.0
1355750886475;3.0
1355750916490;4.0
1355750946475;6.0
1355750976443;6.0
1355751006459;7.0
1355751036443;7.0
1355751066443;7.0
1355751096428;6.0
1355751126412;7.0
1355751156412;0.0
1355751186396;0.0
1355751216396;0.0
1355751246412;0.0
1355751276381;0.0
1355751306381;1.0
1355751336381;1.0
1355751366396;6.0
1355751396412;6.0
1355751426412;4.0
1355751456396;6.0
1355751486490;6.0
1355751517271;1.0
1355751546537;0.0
1355751576365;0.0
1355751606334;0.0
1355751636381;0.0
1355751666365;0.0
1355751696334;0.0
1355751726318;0.0
1355751756318;0.0
1355751786318;6.0
1355751816303;6.0
1355751846287;5.0
1355751876287;4.0
1355751906303;4.0
1355751936287;4.0
1355751966271;4.0
1355751996271;4.0
1355752026256;4.0
1355752056271;4.0
1355752086271;4.0
1355752116271;4.0
1355752146271;4.0
1355752176271;4.0
1355752206225;4.0
1355752236240;4.0
1355752266225;4.0
1355752296209;4.0
1355752326256;4.0
1355752356209;4.0
1355752386209;4.0
1355752416209;4.0
1355752446193;4.0
1355752476178;4.0
1355752506256;4.0
1355752536162;4.0
1355752566162;4.0
1355752596178;4.0
1355752626178;4.0
1355752656162;4.0
1355752686162;4.0
1355752716178;4.0
1355752746146;4.0
1355752776178;4.0
1355752806131;4.0
1355752836131;4.0
