1355749743271;24.24
1355749846818;24.28
1355749966818;24.28
1355750086881;24.32
1355750206771;24.32
1355750326756;24.32
1355750446740;24.28
1355750566725;24.28
1355750686725;24.28
1355750806693;24.22
1355750926646;24.22
1355751046631;24.18
1355751166678;24.14
1355751286615;24.18
1355751406600;24.18
1355751526600;24.14
1355751646584;24.1
1355751766568;24.1
1355751886553;24.06
1355752006537;24.04
1355752126553;24.0
1355752246521;24.0
1355752301178;24.1
1355752421146;24.1
1355752541115;24.1
1355752661115;24.06
1355752781084;24.0
