1355749743693;1
1355749763662;1
1355749793631;1
1355749823615;1
1355749853615;1
1355749883600;1
1355749913631;1
1355749943615;1
1355749973631;1
1355750003615;1
1355750033584;1
1355750063600;1
1355750093568;1
1355750123568;1
1355750153568;1
1355750183568;1
1355750213584;1
1355750243568;1
1355750273568;1
1355750303553;1
1355750333537;1
1355750363521;1
1355750393521;1
1355750423537;1
1355750453506;1
1355750483553;1
1355750513506;1
1355750543521;1
1355750573537;1
1355750603537;1
1355750633568;1
1355750663521;1
1355750693490;1
1355750723475;1
1355750753475;1
1355750783459;1
1355750813459;1
1355750843475;1
1355750873443;1
1355750903443;1
1355750933428;1
1355750963428;1
1355750993443;1
1355751023428;1
1355751053443;1
1355751083412;1
1355751113443;1
1355751143412;1
1355751173428;1
1355751203396;1
1355751233396;1
1355751263381;1
1355751293381;1
1355751323381;1
1355751353396;1
1355751383396;1
1355751413365;1
1355751443350;1
1355751473350;1
1355751503350;1
1355751533365;1
1355751563334;1
1355751593318;1
1355751623334;1
1355751653318;1
1355751683350;1
1355751713303;1
1355751743318;1
1355751773318;1
1355751803318;1
1355751833287;1
1355751863334;1
1355751893303;1
1355751923318;1
1355751953303;1
1355751983287;1
1355752013271;1
1355752043287;1
1355752073365;1
1355752103318;1
1355752133381;1
1355752163256;1
1355752193225;1
1355752223240;1
1355752253225;1
1355752283209;1
1355752313240;1
1355752343225;1
1355752373225;1
1355752403193;1
1355752433193;1
1355752463178;1
1355752493178;1
1355752523178;1
1355752553162;1
1355752583193;1
1355752613162;1
1355752643162;1
1355752673146;1
1355752703162;1
1355752733146;1
1355752763131;1
1355752793131;1
1355752823131;1
1355752853115;1
