1355749742600;1
1355749775178;0
1355749873350;1
1355749917256;0
1355750045803;1
1355750507553;0
1355750511584;1
1355750606225;0
1355750627850;1
1355750910271;0
1355750932100;1
1355751166350;0
1355751207318;1
1355751579350;0
1355751611943;1
1355751946631;0
1355752598037;1
1355752645537;0
