1355318861064;14.0531
1355318862064;0
1355318865898;25.0671
1355318866898;0
1355318925792;4.35421
1355318926792;0
1355318955063;9.90104
1355318956063;0
1355318975740;8.13059
1355318976740;0
1355319063238;46.8968
1355319064238;0
1355319460478;8.14609
1355319461478;0
1355319676408;12.6782
1355319677408;0
1355319710256;16.6232
1355319711256;0
1355319779827;12.8816
1355319780827;0
1355319856386;2.96601
1355319857260;11.4934
1355319858260;0
1355319872635;8.96434
1355319873635;0
1355319884467;9.46389
1355319885467;0
1355319886611;19.095
1355319887611;0
1355319893797;0.871722
1355319894797;0
1355319935784;40.4171
1355319936784;0
1355320024811;12.4648
1355320025811;0
1355320112647;7.53659
1355320113647;0
1355320139169;17.0366
1355320140481;0
1355320146286;0.264252
1355320147286;0
1355320158783;19.4844
1355320160271;0
1355320181613;43.3434
1355320182613;0
1355320281786;25.1786
1355320283274;0
1355320285886;5.13255
1355320286886;0
1355320317718;19.4526
1355320320390;0
1355320330543;11.6326
1355320331599;0
1355320332826;11.0306
1355320333826;0
1355320334841;4.48411
1355320335841;0
1355320490252;45.2914
1355320491252;0
1355320528666;6.60842
1355320529666;0
1355320530611;3.44614
1355320531611;0
1355320803349;4.22046
1355320804349;0
1355320948844;41.3952
1355320949844;0
1355320981948;18.6081
1355320982948;0
1355320984231;21.5065
1355320985287;0
1355320986444;40.272
1355320987444;0
1355321036857;19.9802
1355321038553;0
1355321047667;4.16341
1355321048667;0
1355321059082;19.1839
1355321060714;0
1355321074526;8.6353
1355321075526;0
1355321088155;6.0394
1355321089155;0
1355321156922;6.27716
1355321157922;0
1355321162024;0.295581
1355321163024;0
1355321196676;4.4307
1355321197676;0
1355321209034;0.508258
1355321210034;0
1355321396783;7.31388
1355321398191;0
1355321456349;23.454
1355321456617;8.87213
1355321457617;0
1355321513384;4.74225
1355321514384;0
