1355318898396;2.38148
1355318899396;0
1355318993200;4.2109
1355318994200;0
1355319058067;0.372051
1355319059219;0
1355319609130;0.216566
1355319610130;0
1355319729324;8.59203
1355319730324;0
1355319842490;1.38879
1355319843490;0
1355319886948;12.3098
1355319887948;0
1355319912002;10.3615
1355319913002;0
1355319933769;6.98622
1355319934873;0
1355319944311;7.68908
1355319945311;0
1355319980362;45.8761
1355319981362;0
1355320181275;14.5712
1355320182218;41.3712
1355320183218;0
1355320266748;3.44675
1355320267748;0
1355320318592;0.985605
1355320319592;0
1355320379557;1.82972
1355320380557;0
1355320528328;2.83035
1355320529328;0
1355320551843;17.8187
1355320552843;0
1355320552845;46.77
1355320553845;0
1355320567754;9.03018
1355320568754;0
1355320586753;2.61391
1355320587753;0
1355320590802;1.73535
1355320592274;0
1355320597721;6.51128
1355320598721;0
1355320598862;8.86432
1355320599862;0
1355320605304;2.13141
1355320606304;0
1355320611617;20.6579
1355320612421;2.62903
1355320613421;0
1355320640978;7.5576
1355320642258;0
1355320654210;11.2898
1355320655210;0
1355320661327;25.2956
1355320662895;0
1355320681139;4.7401
1355320682139;0
1355320715503;2.81068
1355320716503;0
1355320726382;22.7769
1355320727646;0
1355320728863;2.908
1355320729863;0
1355320762771;24.0016
1355320763971;0
1355320765124;29.1616
1355320766124;0
1355320803011;22.5239
1355320804011;0
1355320804421;59.8113
1355320805421;0
1355320806634;16.7117
1355320807634;0
1355320807776;49.7948
1355320808776;0
1355320839043;24.0353
1355320839311;6.61464
1355320840311;0
1355320856910;25.4652
1355320857247;2.17179
1355320858319;0
1355320886082;24.1382
1355320887826;0
1355320887492;47.1616
1355320888492;0
1355320893020;23.3732
1355320894700;0
1355320915791;14.9535
1355320916943;0
1355320918342;13.332
1355320919342;0
1355320984697;2.9566
1355320985697;0
1355320994772;0.159967
1355320995812;0
1355321024301;2.04561
1355321025301;0
1355321037125;2.87418
1355321038125;0
1355321048808;0.69711
1355321049808;0
1355321059350;0.11035
1355321060518;0
1355321106349;42.0347
1355321107349;0
1355321418471;6.65374
1355321419471;0
1355321489403;21.537
1355321491355;0
1355321505661;6.58527
1355321506661;0
1355321514257;5.81858
1355321515257;0
