1355318859317;9.41153
1355318860317;0
1355318944859;0.596367
1355318945859;0
1355318972991;44.3344
1355318973991;0
1355318985210;11.9955
1355318986210;0
1355318990649;5.63869
1355318991649;0
1355318992257;58.5843
1355318993257;0
1355319001806;0.912998
1355319002806;0
1355319004019;2.84007
1355319005019;0
1355319005697;9.9754
1355319006697;0
1355319020199;0.340531
1355319021199;0
1355319021340;3.68459
1355319022340;0
1355319023693;3.83851
1355319024957;0
1355319077809;8.85146
1355319078809;0
1355319080360;12.241
1355319081360;0
1355319081770;42.777
1355319082643;18.9563
1355319083643;0
1355319113057;3.23724
1355319114057;0
1355319131856;3.85866
1355319132856;0
1355319146775;2.02303
1355319147775;0
1355319186658;5.35095
1355319187658;0
1355319206599;5.10197
1355319207599;0
1355319210024;7.10975
1355319211024;0
1355319545276;50.8286
1355319546276;0
1355319621884;5.75037
1355319622884;0
1355319679425;4.8765
1355319680425;0
1355319683118;15.6824
1355319684718;0
1355319695684;16.5091
1355319696684;0
1355319697431;8.10686
1355319698431;0
1355319709988;19.5265
1355319711572;0
1355319717373;40.6519
1355319718373;0
1355319737383;13.4251
1355319737651;5.95471
1355319738651;0
1355319767261;54.2006
1355319768261;0
1355319787480;20.116
1355319788888;0
1355319816563;12.2994
1355319817169;2.72442
1355319818169;0
1355319902324;5.38173
1355319903324;0
1355319906016;5.89864
1355319909648;0
1355319918245;43.0483
1355319919245;0
1355319926037;6.52098
1355319927037;0
1355319927447;3.00835
1355319929335;0
1355319938603;9.08728
1355319939603;0
1355319943973;12.5755
1355319946229;0
1355319945184;44.5712
1355319946184;0
1355319978953;17.4042
1355319980569;0
1355320003261;4.93075
1355320004261;0
1355320009505;15.0924
1355320010505;0
1355320019242;4.95029
1355320020242;0
1355320029784;3.38837
1355320030784;0
1355320036296;11.7425
1355320037296;0
1355320045636;3.38487
1355320046636;0
1355320047185;0.733909
1355320048185;0
1355320051612;8.49155
1355320052612;0
1355320058193;9.4361
1355320059193;0
1355320153602;1.05828
1355320154602;0
1355320157443;2.79377
1355320158443;0
1355320178456;5.27031
1355320181400;0
1355320262252;1.97266
1355320263252;0
1355320264128;5.12998
1355320265128;0
1355320280178;1.3087
1355320281178;0
1355320290918;22.4963
1355320291918;0
1355320293270;54.224
1355320294270;0
1355320335178;44.0912
1355320336178;0
1355320461179;0.562802
1355320462731;0
1355320480445;8.0338
1355320481445;0
1355320486828;1.91603
1355320487828;0
1355320491592;51.8838
1355320492592;0
1355320499046;6.04641
1355320500046;0
1355320507642;1.77132
1355320508642;0
1355320512685;4.02344
1355320513685;0
1355320517787;0.478318
1355320519179;0
1355320530343;12.9138
1355320531343;0
1355320763714;0.0620029
1355320764714;0
1355321139125;8.44495
1355321140125;0
1355321146847;1.07551
1355321147847;0
1355321497125;0.505945
1355321498125;0
