1355318842062;0
1355318846093;1
1355319070031;0
1355319072828;1
1355319178093;0
1355319185671;1
1355319310421;0
1355319322718;1
1355319711343;0
1355319728421;1
1355319807359;0
1355319898984;1
1355319967140;0
1355319983781;1
1355320052656;0
1355320055906;1
1355320127203;0
1355320127687;1
1355320194703;0
1355320264968;1
1355320315750;0
1355320328515;1
1355320561093;0
1355321145437;1
1355321179593;0
1355321519015;1
