1355318842250;0
1355319833703;0
1355319833906;98
1355320087437;94
1355320099671;100
1355320956500;92
1355320957484;100
1355320957734;100
1355320976218;0
1355320976453;0
1355321127500;0
1355321127750;98
1355321128109;0
1355321128421;0
