1355318841828;23.66
1355318858187;23.66
1355318918265;23.68
1355318978281;23.66
1355319038343;23.68
1355319100281;23.68
1355319158468;23.7
1355319218531;23.72
1355319278593;23.72
1355319338703;23.740000000000002
1355319398687;23.76
1355319458734;23.76
1355319518765;23.76
1355319578937;23.76
1355319639062;23.78
1355319698906;23.76
1355319759000;23.78
1355319819062;23.78
1355319879140;23.8
1355319939109;23.78
1355319999187;23.78
1355320059250;23.8
1355320128375;23.78
1355320179390;23.76
1355320239390;23.72
1355320299453;23.7
1355320359593;23.7
1355320419515;23.66
1355320479562;23.62
1355320539640;23.580000000000002
1355320617984;23.56
1355320659796;23.52
1355320719859;23.48
1355320779906;23.42
1355320839953;23.38
1355320850250;23.36
1355320909984;23.34
1355320970000;23.3
1355321030062;23.26
1355321090187;23.26
1355321150250;23.26
1355321210218;23.3
1355321272437;23.32
1355321330187;23.32
1355321390250;23.32
1355321453265;23.34
1355321510359;23.36
