1355318841281;1
1355318867875;1
1355318894890;1
1355318924875;1
1355318954843;1
1355318984859;1
1355319014843;1
1355319044859;1
1355319074828;1
1355319123343;1
1355319134875;1
1355319164843;1
1355319194843;1
1355319224812;1
1355319254812;1
1355319284828;1
1355319314796;1
1355319344796;1
1355319374781;1
1355319404812;1
1355319434765;1
1355319464781;1
1355319494781;1
1355319524796;1
1355319554781;1
1355319584750;1
1355319614781;1
1355319647125;1
1355319674781;1
1355319704765;1
1355319734765;1
1355319764734;1
1355319794750;1
1355319824859;1
1355319854750;1
1355319884812;1
1355319914843;1
1355319945718;1
1355319976250;1
1355320004718;1
1355320034703;1
1355320064687;1
1355320094718;1
1355320129062;1
1355320154671;1
1355320184671;1
1355320214687;1
1355320244687;1
1355320274656;1
1355320304656;1
1355320334640;1
1355320364656;1
1355320394625;1
1355320424625;1
1355320454687;1
1355320484625;1
1355320514625;1
1355320546390;1
1355320574609;1
1355320618484;1
1355320634593;1
1355320664593;1
1355320694578;1
1355320724578;1
1355320754593;1
1355320784562;1
1355320814578;1
1355320844578;1
1355320874593;1
1355320904609;1
1355320936250;1
1355320964562;1
1355320994578;1
1355321024640;1
1355321054671;1
1355321084531;1
1355321114531;1
1355321146093;1
1355321174562;1
1355321204656;1
1355321234609;1
1355321267453;1
1355321294656;1
1355321326500;1
1355321354671;1
1355321384609;1
1355321415718;1
1355321444609;1
1355321474515;1
1355321504500;1
