1355318843765;1
1355318846984;1
1355318876984;1
1355318906968;1
1355318942828;1
1355318966968;1
1355319000031;1
1355319027062;1
1355319057062;1
1355319086921;1
1355319130250;1
1355319146921;1
1355319176906;1
1355319206890;1
1355319236890;1
1355319266890;1
1355319296906;1
1355319326906;1
1355319356875;1
1355319386890;1
1355319419859;1
1355319446890;1
1355319476859;1
1355319506859;1
1355319536906;1
1355319566859;1
1355319596843;1
1355319626859;1
1355319656843;1
1355319686812;1
1355319717359;1
1355319747406;1
1355319777562;1
1355319806796;1
1355319836859;1
1355319866796;1
1355319896781;1
1355319926781;1
1355319956796;1
1355319986796;1
1355320016843;1
1355320046781;1
1355320076765;1
1355320127312;1
1355320136765;1
1355320166734;1
1355320196734;1
1355320226734;1
1355320256734;1
1355320286765;1
1355320316734;1
1355320346718;1
1355320379500;1
1355320409562;1
1355320436703;1
1355320466703;1
1355320496796;1
1355320526843;1
1355320556796;1
1355320586671;1
1355320619375;1
1355320648359;1
1355320676687;1
1355320706687;1
1355320736671;1
1355320766656;1
1355320796640;1
1355320826656;1
1355320856640;1
1355320886640;1
1355320916640;1
1355320955687;1
1355320976750;1
1355321006703;1
1355321036640;1
1355321066640;1
1355321096640;1
1355321126890;1
1355321156609;1
1355321186609;1
1355321216578;1
1355321246578;1
1355321279703;1
1355321321453;1
1355321336640;1
1355321366609;1
1355321396593;1
1355321426609;1
1355321456593;1
1355321486546;1
1355321516546;1
