1355318842265;5.0
1355318859968;5.0
1355318889984;4.0
1355318919984;6.0
1355318949968;66.0
1355318979937;88.96000000000001
1355319009937;88.0
1355319039921;98.0
1355319069953;98.0
1355319100343;90.0
1355319131375;88.0
1355319159921;92.96000000000001
1355319189906;92.0
1355319219906;88.96000000000001
1355319249906;90.0
1355319279890;92.0
1355319309906;92.0
1355319339890;92.0
1355319369906;88.0
1355319399875;82.0
1355319429890;79.0
1355319459875;77.0
1355319489875;77.0
1355319519875;77.0
1355319549843;79.0
1355319579859;72.0
1355319609843;79.0
1355319639843;75.0
1355319669859;81.0
1355319699890;82.96000000000001
1355319729828;86.0
1355319762484;82.96000000000001
1355319792609;82.0
1355319819828;65.0
1355319849828;66.0
1355319882843;65.0
1355319909875;63.0
1355319939921;60.0
1355319969796;59.0
1355319999796;73.0
1355320029781;67.0
1355320059781;66.0
1355320089750;67.0
1355320128421;59.0
1355320149750;40.0
1355320179781;48.0
1355320209734;52.0
1355320239734;55.0
1355320269750;51.0
1355320302734;49.0
1355320329734;49.0
1355320359781;45.0
1355320389734;33.0
1355320419750;2.0
1355320449718;2.0
1355320482750;8.0
1355320509703;9.0
1355320542859;8.0
1355320569687;8.0
1355320618046;8.0
1355320629687;9.0
1355320659671;9.0
1355320689687;8.0
1355320719671;8.0
1355320749671;8.0
1355320779687;8.0
1355320809640;8.0
1355320839640;8.0
1355320869640;8.0
1355320899671;8.0
1355320929625;8.0
1355320959625;4.0
1355320989703;4.0
1355321019640;4.0
1355321049656;4.0
1355321079671;4.0
1355321109640;5.0
1355321145296;4.0
1355321169609;5.0
1355321199593;5.0
1355321229609;4.0
1355321259593;4.0
1355321289687;5.0
1355321326031;4.0
1355321352750;4.0
1355321379750;4.0
1355321412828;4.0
1355321439859;4.0
1355321469609;4.0
1355321499687;4.0
