1355318841218;5467.0
1355318843359;5467.0
1355318846218;5467.0
1355318851234;5467.0
1355318856265;5467.0
1355318861281;5467.0
1355318868015;5467.0
1355318874312;5467.0
1355318876328;5467.0
1355318881328;5467.0
1355318886375;5467.0
1355318891375;5467.0
1355318899359;5467.0
1355318901390;5467.0
1355318906453;5467.0
1355318911437;5467.0
1355318916437;5467.0
1355318921484;5467.0
1355318926468;5467.0
1355318931500;5467.0
1355318936531;5467.0
1355318942906;5467.0
1355318946546;5467.0
1355318951562;5467.0
1355318956562;5467.0
1355318961593;5467.0
1355318966593;5467.0
1355318974609;5467.0
1355318976656;5467.0
1355318981671;5467.0
1355318986671;5467.0
1355318994687;5467.0
1355318996703;5467.0
1355319001703;5467.0
1355319006718;5467.0
1355319011750;5467.0
1355319016796;5467.0
1355319021781;5467.0
1355319026796;5467.0
1355319031812;5467.0
1355319036843;5467.0
1355319041843;5467.0
1355319046843;5467.0
1355319051890;5467.0
1355319056875;5467.0
1355319061921;5467.0
1355319066906;5467.0
1355319071937;5467.0
1355319076953;5467.0
1355319081953;5467.0
1355319087000;5467.0
1355319092000;5467.0
1355319097031;5467.0
1355319102078;5467.0
1355319123468;5467.0
1355319123906;5467.0
1355319130281;5467.0
1355319130703;5467.0
1355319131046;5467.0
1355319132140;5467.0
1355319137156;5467.0
1355319142171;5467.0
1355319147171;5467.0
1355319152218;5467.0
1355319157203;5467.0
1355319162250;5467.0
1355319167250;5467.0
1355319172265;5467.0
1355319177281;5467.0
1355319182312;5467.0
1355319187328;5467.0
1355319192343;5467.0
1355319197328;5467.0
1355319202343;5467.0
1355319207390;5467.0
1355319212406;5467.0
1355319217421;5467.0
1355319222437;5467.0
1355319227421;5467.0
1355319232437;5467.0
1355319237468;5467.0
1355319242500;5467.0
1355319247500;5467.0
1355319252531;5467.0
1355319257546;5467.0
1355319262593;5467.0
1355319267546;5467.0
1355319272593;5467.0
1355319277609;5467.0
1355319282609;5467.0
1355319287609;5467.0
1355319292656;5467.0
1355319297640;5467.0
1355319302718;5467.0
1355319307687;5467.0
1355319312703;5467.0
1355319317718;5467.0
1355319322859;5467.0
1355319327765;5467.0
1355319332781;5467.0
1355319337796;5467.0
1355319342796;5467.0
1355319347875;5467.0
1355319352843;5467.0
1355319357843;5467.0
1355319365656;5467.0
1355319368937;5467.0
1355319372906;5467.0
1355319377937;5467.0
1355319382953;5467.0
1355319387937;5467.0
1355319392953;5467.0
1355319397968;5467.0
1355319402984;5467.0
1355319408000;5467.0
1355319413078;5467.0
1355319419906;5467.0
1355319423281;5467.0
1355319428078;5467.0
1355319433078;5467.0
1355319438109;5467.0
1355319446109;5467.0
1355319448125;5467.0
1355319453171;5467.0
1355319458156;5467.0
1355319463171;5467.0
1355319468203;5467.0
1355319473203;5467.0
1355319478234;5467.0
1355319483265;5467.0
1355319488250;5467.0
1355319493281;5467.0
1355319498281;5467.0
1355319503296;5467.0
1355319508328;5467.0
1355319513343;5467.0
1355319518343;5467.0
1355319523390;5467.0
1355319528421;5467.0
1355319533453;5467.0
1355319538421;5467.0
1355319543437;5467.0
1355319548453;5467.0
1355319553484;5467.0
1355319558515;5467.0
1355319563500;5467.0
1355319568531;5467.0
1355319573562;5467.0
1355319578546;5467.0
1355319583578;5467.0
1355319588578;5467.0
1355319593609;5467.0
1355319598640;5467.0
1355319603640;5467.0
1355319608640;5467.0
1355319613671;5467.0
1355319618671;5468.0
1355319623687;5468.0
1355319628703;5468.0
1355319633750;5468.0
1355319638781;5468.0
1355319643796;5468.0
1355319648765;5468.0
1355319653796;5468.0
1355319658796;5468.0
1355319663828;5468.0
1355319668859;5468.0
1355319673859;5468.0
1355319678859;5468.0
1355319683890;5468.0
1355319688906;5468.0
1355319693937;5468.0
1355319698968;5468.0
1355319703968;5468.0
1355319708953;5468.0
1355319714015;5468.0
1355319719000;5468.0
1355319724031;5468.0
1355319729046;5468.0
1355319734062;5468.0
1355319739062;5468.0
1355319744093;5468.0
1355319749140;5468.0
1355319754109;5468.0
1355319759156;5468.0
1355319764171;5468.0
1355319769156;5468.0
1355319774171;5468.0
1355319779203;5468.0
1355319784218;5468.0
1355319789218;5468.0
1355319794250;5468.0
1355319799250;5468.0
1355319804296;5468.0
1355319809328;5468.0
1355319814328;5468.0
1355319819312;5468.0
1355319824453;5468.0
1355319829343;5468.0
1355319834375;5468.0
1355319839390;5468.0
1355319844390;5468.0
1355319849421;5468.0
1355319854437;5468.0
1355319859437;5468.0
1355319864453;5468.0
1355319869468;5468.0
1355319874515;5468.0
1355319879531;5468.0
1355319884515;5468.0
1355319889531;5468.0
1355319894562;5468.0
1355319899562;5468.0
1355319907531;5468.0
1355319909609;5468.0
1355319914640;5468.0
1355319919656;5468.0
1355319924656;5468.0
1355319929687;5468.0
1355319934671;5468.0
1355319939718;5468.0
1355319945765;5468.0
1355319949734;5468.0
1355319954750;5468.0
1355319959765;5468.0
1355319966109;5468.0
1355319969859;5468.0
1355319976312;5468.0
1355319983140;5468.0
1355319984843;5468.0
1355319989859;5468.0
1355319994906;5468.0
1355319999953;5468.0
1355320004921;5468.0
1355320009937;5468.0
1355320014953;5468.0
1355320019968;5468.0
1355320024984;5468.0
1355320030015;5468.0
1355320035031;5468.0
1355320040015;5468.0
1355320045031;5468.0
1355320050062;5468.0
1355320055062;5468.0
1355320060078;5468.0
1355320065109;5468.0
1355320070125;5468.0
1355320075140;5468.0
1355320080171;5468.0
1355320085171;5468.0
1355320090187;5468.0
1355320095187;5468.0
1355320100203;5468.0
1355320105250;5468.0
1355320127375;5468.0
1355320128015;5468.0
1355320128484;5468.0
1355320129140;5468.0
1355320130296;5468.0
1355320135343;5468.0
1355320140328;5468.0
1355320145375;5468.0
1355320150390;5468.0
1355320155421;5468.0
1355320160421;5468.0
1355320165437;5468.0
1355320170421;5468.0
1355320178453;5468.0
1355320180453;5468.0
1355320185500;5468.0
1355320190500;5468.0
1355320195515;5468.0
1355320200531;5468.0
1355320205546;5468.0
1355320210562;5468.0
1355320218593;5468.0
1355320220593;5468.0
1355320225625;5468.0
1355320230609;5468.0
1355320235656;5468.0
1355320240687;5468.0
1355320245671;5468.0
1355320250687;5468.0
1355320255734;5468.0
1355320260718;5468.0
1355320265765;5468.0
1355320270750;5468.0
1355320275781;5468.0
1355320280812;5468.0
1355320285828;5468.0
1355320290843;5468.0
1355320295843;5468.0
1355320302781;5468.0
1355320305859;5468.0
1355320310875;5468.0
1355320315890;5468.0
1355320323937;5468.0
1355320325921;5468.0
1355320330968;5468.0
1355320335953;5468.0
1355320340984;5468.0
1355320345984;5468.0
1355320351046;5468.0
1355320356031;5468.0
1355320361046;5468.0
1355320366062;5468.0
1355320371078;5468.0
1355320376093;5468.0
1355320381093;5468.0
1355320386109;5468.0
1355320391156;5468.0
1355320396171;5468.0
1355320401187;5468.0
1355320409171;5468.0
1355320411187;5468.0
1355320416218;5468.0
1355320421234;5468.0
1355320426250;5468.0
1355320431250;5468.0
1355320436296;5468.0
1355320441312;5468.0
1355320446328;5468.0
1355320451343;5468.0
1355320456359;5468.0
1355320461343;5468.0
1355320466390;5468.0
1355320471390;5468.0
1355320476406;5468.0
1355320482796;5468.0
1355320486453;5468.0
1355320491484;5468.0
1355320496468;5468.0
1355320504484;5468.0
1355320506546;5468.0
1355320511515;5468.0
1355320516531;5468.0
1355320521578;5468.0
1355320526546;5468.0
1355320531578;5468.0
1355320536625;5468.0
1355320542984;5468.0
1355320546656;5468.0
1355320551640;5468.0
1355320556656;5468.0
1355320561687;5468.0
1355320566687;5468.0
1355320571703;5468.0
1355320576734;5468.0
1355320581734;5468.0
1355320586796;5468.0
1355320591765;5468.0
1355320617593;5468.0
1355320618109;5468.0
1355320618531;5468.0
1355320618984;5468.0
1355320619421;5468.0
1355320621859;5468.0
1355320626875;5468.0
1355320631921;5468.0
1355320636906;5468.0
1355320641921;5468.0
1355320651421;5468.0
1355320651968;5468.0
1355320656984;5468.0
1355320662000;5468.0
1355320667828;5468.0
1355320672046;5468.0
1355320677031;5468.0
1355320682109;5468.0
1355320687062;5468.0
1355320692109;5468.0
1355320697109;5468.0
1355320702156;5468.0
1355320707125;5468.0
1355320712156;5468.0
1355320717187;5468.0
1355320722187;5468.0
1355320727203;5468.0
1355320732203;5468.0
1355320737250;5468.0
1355320742234;5468.0
1355320747265;5468.0
1355320752281;5468.0
1355320757312;5468.0
1355320762328;5468.0
1355320767343;5468.0
1355320772359;5468.0
1355320777359;5468.0
1355320782421;5468.0
1355320787390;5468.0
1355320792437;5468.0
1355320797421;5468.0
1355320802437;5468.0
1355320807453;5468.0
1355320812484;5468.0
1355320817484;5468.0
1355320822500;5468.0
1355320827515;5468.0
1355320832562;5468.0
1355320837546;5468.0
1355320842562;5468.0
1355320847640;5468.0
1355320852593;5468.0
1355320857640;5468.0
1355320862640;5468.0
1355320867656;5468.0
1355320872656;5468.0
1355320877703;5468.0
1355320882703;5468.0
1355320887718;5468.0
1355320892750;5468.0
1355320897765;5468.0
1355320902796;5468.0
1355320907781;5468.0
1355320912796;5468.0
1355320917859;5468.0
1355320922875;5468.0
1355320927890;5468.0
1355320932875;5468.0
1355320937890;5468.0
1355320942890;5468.0
1355320955734;5468.0
1355320956796;5468.0
1355320958046;5468.0
1355320962953;5468.0
1355320967968;5468.0
1355320973031;5468.0
1355320978000;5468.0
1355320983125;5468.0
1355320988078;5468.0
1355320993078;5468.0
1355320998171;5468.0
1355321006156;5468.0
1355321008109;5468.0
1355321013125;5468.0
1355321018187;5468.0
1355321023265;5468.0
1355321028171;5468.0
1355321033218;5468.0
1355321041218;5468.0
1355321047875;5468.0
1355321048484;5468.0
1355321053312;5468.0
1355321058343;5468.0
1355321063312;5468.0
1355321068281;5468.0
1355321073328;5468.0
1355321078421;5468.0
1355321083390;5468.0
1355321088421;5468.0
1355321093421;5468.0
1355321098421;5468.0
1355321103453;5468.0
1355321108500;5468.0
1355321113515;5468.0
1355321118453;5468.0
1355321123468;5468.0
1355321128750;5468.0
1355321133531;5468.0
1355321138562;5468.0
1355321145546;5468.0
1355321148718;5468.0
1355321153578;5468.0
1355321158593;5468.0
1355321163640;5468.0
1355321168812;5468.0
1355321173656;5468.0
1355321178671;5468.0
1355321185859;5468.0
1355321188718;5468.0
1355321193687;5468.0
1355321198921;5468.0
1355321203765;5468.0
1355321208750;5468.0
1355321214015;5468.0
1355321218750;5468.0
1355321223812;5468.0
1355321228796;5468.0
1355321233812;5468.0
1355321238906;5468.0
1355321243875;5468.0
1355321248875;5468.0
1355321253906;5468.0
1355321258953;5468.0
1355321263906;5468.0
1355321268968;5468.0
1355321274015;5468.0
1355321279843;5468.0
1355321284000;5468.0
1355321289078;5468.0
1355321294046;5468.0
1355321299093;5468.0
1355321320968;5468.0
1355321321515;5468.0
1355321322093;5468.0
1355321322640;5468.0
1355321326093;5468.0
1355321329156;5468.0
1355321334234;5468.0
1355321339187;5468.0
1355321344203;5468.0
1355321349203;5468.0
1355321354203;5468.0
1355321359296;5468.0
1355321365171;5468.0
1355321369343;5468.0
1355321374265;5468.0
1355321379328;5468.0
1355321384296;5468.0
1355321389343;5468.0
1355321394421;5468.0
1355321399359;5468.0
1355321404390;5468.0
1355321409406;5468.0
1355321415437;5468.0
1355321419406;5468.0
1355321424437;5468.0
1355321429437;5468.0
1355321434546;5468.0
1355321439500;5468.0
1355321444765;5468.0
1355321452671;5468.0
1355321454546;5468.0
1355321459562;5468.0
1355321464546;5468.0
1355321469656;5468.0
1355321474609;5468.0
1355321479656;5468.0
1355321484625;5468.0
1355321489656;5468.0
1355321494625;5468.0
1355321499812;5468.0
1355321504687;5468.0
1355321509765;5468.0
1355321514828;5468.0
1355321519781;5468.0
