1358848107357;1
1358848119810;1
1358848149779;1
1358848179779;1
1358848209716;1
1358848239716;1
1358848269716;1
1358848299701;1
1358848329701;1
1358848359685;1
1358848389701;1
1358848419701;1
1358848449669;1
1358848479685;1
1358848509685;1
1358848539669;1
1358848569669;1
1358848599685;1
1358848629654;1
1358848659654;1
1358848689654;1
1358848719623;1
1358848749669;1
1358848779623;1
1358848809607;1
1358848839607;1
1358848869607;1
1358848899591;1
1358848929623;1
1358848959591;1
1358848989607;1
1358849019638;1
1358849049576;1
1358849079607;1
1358849109576;1
1358849139623;1
1358849169560;1
1358849199576;1
1358849229560;1
1358849259560;1
1358849289560;1
1358849319544;1
1358849349513;1
1358849379529;1
1358849409513;1
1358849439513;1
1358849469513;1
1358849499544;1
1358849529498;1
1358849559498;1
1358849589498;1
1358849619607;1
1358849649560;1
1358849679576;1
1358849709482;1
1358849739466;1
1358849769451;1
1358849799451;1
1358849829466;1
1358849859435;1
1358849889419;1
1358849919451;1
1358849949419;1
1358849979419;1
1358850009404;1
1358850039404;1
1358850069419;1
1358850099388;1
1358850129404;1
