1358848106748;1093.9100341796875
1358848432998;1093.9200439453125
1358848445951;1093.9300537109375
1358848789607;1093.9400634765625
1358848822029;1093.9500732421875
1358848867263;1093.9600830078125
1358848893091;1093.9700927734375
1358848906029;1093.9801025390625
