1358848104763;1
1358848597685;0
1358848607904;1
1358848650685;0
1358848663310;1
1358849032716;0
1358849216560;1
1358849360529;0
1358849531966;1
1358849570513;0
1358849845810;1
1358849892482;0
1358850128591;1
