1358848105935;35.0
1358848132748;180.96
1358848162763;184.96
1358848192779;52.0
1358848222748;52.0
1358848252779;126.96000000000001
1358848282763;434.88
1358848312716;422.72
1358848342701;408.96000000000004
1358848372732;417.92
1358848402685;418.88
1358848432794;422.72
1358848462685;433.92
1358848492701;374.72
1358848522669;385.92
1358848552669;420.8
1358848582669;417.92
1358848612654;408.0
1358848642685;385.92
1358848672669;402.88
1358848702638;384.96000000000004
1358848732654;368.96
1358848762654;390.72
1358848792638;380.8
1358848822638;381.76
1358848852638;378.88
1358848882654;368.0
1358848912623;366.72
1358848942607;365.76
1358848972591;376.0
1358849002669;373.76
1358849032763;370.88
1358849062701;368.96
1358849092701;360.0
1358849122576;365.76
1358849152576;355.84000000000003
1358849182560;352.0
1358849212544;347.84000000000003
1358849242560;344.96
1358849272560;246.88
1358849302529;36.0
1358849332544;33.0
1358849362560;33.0
1358849392529;32.0
1358849422513;32.0
1358849452529;32.0
1358849482513;32.0
1358849512529;32.0
1358849542513;5.0
1358849572498;5.0
1358849602482;5.0
1358849632513;5.0
1358849662482;5.0
1358849692498;5.0
1358849722466;5.0
1358849752451;5.0
1358849782466;5.0
1358849812451;5.0
1358849842466;5.0
1358849872466;6.0
1358849902435;6.0
1358849932435;6.0
1358849962419;6.0
1358849992419;6.0
1358850022419;6.0
1358850052419;6.0
1358850082404;6.0
1358850112388;6.0
1358850142373;5.0
