1358848106091;10
1358848551138;10
1358848597669;10
1358848607888;10
1358848645826;20
1358848650669;10
1358848656123;20
1358848663294;10
1358848855966;20
1358848960263;10
1358848977185;30
1358849014826;30
1358849032701;10
1358849216529;10
1358849284279;10
1358849326263;30
1358849360513;10
1358849531951;10
1358849564654;30
1358849570498;10
1358849845779;10
1358849892466;10
1358850102044;30
1358850128560;10
