1358848106748;24.42
1358848131716;24.4
1358848251669;24.42
1358848371669;24.44
1358848491638;24.5
1358848611623;24.52
1358848731841;24.54
1358848851591;24.58
1358848971654;24.58
1358849091560;24.62
1358849211576;24.66
1358849331544;24.68
1358849451560;24.7
1358849571513;24.76
1358849691544;24.76
1358849811498;24.8
1358849931560;24.84
1358850051451;24.9
