1358848105263;24.38
1358848154951;24.400000000000002
1358848215060;24.400000000000002
1358848275123;24.44
1358848335138;24.46
1358848395232;24.48
1358848455248;24.5
1358848515326;24.54
1358848575357;24.580000000000002
1358848635404;24.62
1358848695419;24.66
1358848755482;24.72
1358848815544;24.76
1358848875576;24.82
1358848925341;24.86
1358848984607;24.88
1358849044669;24.900000000000002
1358849104716;24.94
1358849164716;24.96
1358849224857;25.0
1358849284841;25.0
1358849344857;25.060000000000002
1358849404919;25.060000000000002
1358849464935;25.080000000000002
1358849525044;25.1
1358849585091;25.080000000000002
1358849645123;25.12
1358849705138;25.14
1358849765138;25.14
1358849825279;25.16
1358849885404;25.16
1358849945529;25.16
1358850005544;25.14
1358850065498;25.16
1358850125591;25.14
