1358848104607;1632.0
1358848106826;1629.0
1358848109498;1632.0
1358848114544;1627.0
1358848119544;1729.0
1358848124560;1730.0
1358848129576;1713.0
1358848134607;1721.0
1358848139638;1718.0
1358848144607;1713.0
1358848149654;1709.0
1358848154669;1615.0
1358848159669;1599.0
1358848164685;1613.0
1358848169701;1605.0
1358848174732;1603.0
1358848179732;1687.0
1358848184794;1691.0
1358848189794;1773.0
1358848194794;1783.0
1358848199810;1918.0
1358848204826;1916.0
1358848209841;1893.0
1358848214841;1894.0
1358848219888;1899.0
1358848224873;1895.0
1358848229951;1887.0
1358848234919;1893.0
1358848239935;1880.0
1358848244966;1885.0
1358848249966;1891.0
1358848254951;1885.0
1358848259998;1884.0
1358848265013;1877.0
1358848270044;1873.0
1358848275013;886.0
1358848280107;610.0
1358848285076;372.0
1358848290076;374.0
1358848295123;372.0
1358848300091;374.0
1358848305154;373.0
1358848310138;375.0
1358848315216;374.0
1358848320185;372.0
1358848325216;370.0
1358848330201;371.0
1358848335279;370.0
1358848340263;370.0
1358848345248;373.0
1358848350388;372.0
1358848355357;370.0
1358848360357;371.0
1358848365357;372.0
1358848370404;373.0
1358848375388;371.0
1358848380576;372.0
1358848385419;372.0
1358848390404;371.0
1358848395451;371.0
1358848400404;372.0
1358848405498;371.0
1358848410482;372.0
1358848415576;373.0
1358848420544;371.0
1358848425544;372.0
1358848430607;371.0
1358848435544;372.0
1358848440638;373.0
1358848445701;374.0
1358848450669;374.0
1358848455654;373.0
1358848460732;372.0
1358848465685;373.0
1358848470701;375.0
1358848475669;374.0
1358848480685;374.0
1358848485716;373.0
1358848490732;372.0
1358848495732;371.0
1358848500763;375.0
1358848505826;374.0
1358848510779;374.0
1358848515826;375.0
1358848520810;373.0
1358848525873;373.0
1358848530904;375.0
1358848535888;374.0
1358848540935;372.0
1358848545966;374.0
1358848550982;372.0
1358848555951;276.0
1358848560966;193.0
1358848565951;194.0
1358848571029;194.0
1358848576029;194.0
1358848581123;193.0
1358848586076;387.0
1358848591076;384.0
1358848596076;386.0
1358848601076;387.0
1358848606060;386.0
1358848611123;387.0
1358848616107;398.0
1358848621201;476.0
1358848626294;477.0
1358848631232;476.0
1358848636201;479.0
1358848641373;476.0
1358848646248;477.0
1358848651232;477.0
1358848656623;476.0
1358848661294;477.0
1358848666326;474.0
1358848671482;473.0
1358848676326;475.0
1358848681310;471.0
1358848686388;473.0
1358848691388;471.0
1358848696419;473.0
1358848701451;474.0
1358848706419;472.0
1358848711498;471.0
1358848716419;470.0
1358848721513;470.0
1358848726482;474.0
1358848731638;475.0
1358848736544;471.0
1358848741607;575.0
1358848746607;572.0
1358848751591;571.0
1358848756638;574.0
1358848761607;575.0
1358848766638;574.0
1358848771623;572.0
1358848776638;572.0
1358848781701;574.0
1358848786685;571.0
1358848791810;570.0
1358848796716;571.0
1358848801732;570.0
1358848806732;569.0
1358848811732;570.0
1358848816794;568.0
1358848821779;568.0
1358848826794;571.0
1358848831888;572.0
1358848836810;568.0
1358848841857;569.0
1358848846841;572.0
1358848851904;573.0
1358848856935;579.0
1358848861935;579.0
1358848866966;577.0
1358848871951;574.0
1358848876951;576.0
1358848881982;573.0
1358848886998;575.0
1358848892013;568.0
1358848897076;569.0
1358848902029;569.0
1358848907029;567.0
1358848912154;565.0
1358848917138;567.0
1358848922091;566.0
1358848927185;567.0
1358848932185;564.0
1358848937138;564.0
1358848942169;568.0
1358848947201;565.0
1358848952201;568.0
1358848957248;566.0
1358848962279;568.0
1358848967216;470.0
1358848972326;390.0
1358848977326;193.0
1358848982341;195.0
1358848987373;194.0
1358848992326;195.0
1358848997310;194.0
1358849002435;193.0
1358849007404;195.0
1358849012513;195.0
1358849017419;195.0
1358849022404;193.0
1358849027513;195.0
1358849032451;191.0
1358849037513;191.0
1358849042498;193.0
1358849047482;191.0
1358849052513;191.0
1358849057529;193.0
1358849062560;191.0
1358849067560;193.0
1358849072591;191.0
1358849077607;193.0
1358849082623;194.0
1358849087654;193.0
1358849092748;195.0
1358849098498;193.0
1358849102716;196.0
1358849107685;193.0
1358849112732;193.0
1358849117701;195.0
1358849122794;193.0
1358849127779;194.0
1358849132810;193.0
1358849137794;191.0
1358849142826;191.0
1358849147873;194.0
1358849152841;194.0
1358849157904;194.0
1358849162857;191.0
1358849167919;191.0
1358849172919;194.0
1358849177951;193.0
1358849182904;191.0
1358849187998;193.0
1358849192935;191.0
1358849197982;194.0
1358849203044;195.0
1358849208029;194.0
1358849212998;194.0
1358849218091;194.0
1358849223076;194.0
1358849228076;193.0
1358849233091;195.0
1358849238138;195.0
1358849243138;194.0
1358849248185;193.0
1358849253138;194.0
1358849258169;193.0
1358849263216;193.0
1358849268201;194.0
1358849273216;305.0
1358849278294;306.0
1358849283326;303.0
1358849288248;356.0
1358849293513;398.0
1358849298373;396.0
1358849303341;396.0
1358849308357;397.0
1358849313373;290.0
1358849318388;286.0
1358849323357;288.0
1358849328373;291.0
1358849333404;291.0
1358849338419;292.0
1358849343498;290.0
1358849348435;291.0
1358849353482;290.0
1358849358466;290.0
1358849363482;290.0
1358849368591;564.0
1358849373623;557.0
1358849378529;562.0
1358849383560;558.0
1358849388623;561.0
1358849393669;556.0
1358849398654;560.0
1358849403685;558.0
1358849408623;556.0
1358849413716;560.0
1358849418701;557.0
1358849423685;560.0
1358849428701;558.0
1358849433716;561.0
1358849438748;558.0
1358849443732;558.0
1358849448748;558.0
1358849453763;564.0
1358849458779;560.0
1358849463794;563.0
1358849468888;563.0
1358849473857;565.0
1358849478904;562.0
1358849483982;562.0
1358849488982;560.0
1358849493919;557.0
1358849498982;554.0
1358849503951;484.0
1358849508998;471.0
1358849514029;472.0
1358849519044;287.0
1358849524013;288.0
1358849529029;288.0
1358849534044;287.0
1358849539060;287.0
1358849544123;288.0
1358849549076;288.0
1358849554107;287.0
1358849559123;288.0
1358849564138;287.0
1358849569169;287.0
1358849574248;522.0
1358849579232;517.0
1358849584216;515.0
1358849589232;518.0
1358849594232;521.0
1358849599248;521.0
1358849604341;517.0
1358849609248;516.0
1358849614263;313.0
1358849619388;291.0
1358849624326;291.0
1358849629373;301.0
1358849634357;302.0
1358849639357;301.0
1358849644388;300.0
1358849649451;297.0
1358849654498;297.0
1358849659451;298.0
1358849664451;300.0
1358849669529;299.0
1358849674544;298.0
1358849679529;300.0
1358849684513;300.0
1358849689591;300.0
1358849694560;299.0
1358849699544;300.0
1358849704623;299.0
1358849709638;299.0
1358849714607;299.0
1358849719638;301.0
1358849724779;301.0
1358849729732;292.0
1358849734654;292.0
1358849739748;293.0
1358849744779;293.0
1358849749779;291.0
1358849754732;293.0
1358849759810;293.0
1358849764763;292.0
1358849769810;293.0
1358849774794;291.0
1358849779794;290.0
1358849784888;288.0
1358849789888;288.0
1358849794919;288.0
1358849799904;287.0
1358849805013;290.0
1358849809982;290.0
1358849814982;290.0
1358849819951;288.0
1358849824966;288.0
1358849829982;291.0
1358849835091;290.0
1358849840013;290.0
1358849845029;293.0
1358849850154;292.0
1358849855076;292.0
1358849860138;291.0
1358849865107;293.0
1358849870185;293.0
1358849875123;293.0
1358849880185;293.0
1358849885232;293.0
1358849890216;291.0
1358849895248;288.0
1358849900201;290.0
1358849905310;288.0
1358849910232;291.0
1358849915513;288.0
1358849920294;287.0
1358849925357;287.0
1358849930326;290.0
1358849935294;290.0
1358849940357;291.0
1358849945388;288.0
1358849950419;290.0
1358849955451;290.0
1358849960435;292.0
1358849965404;291.0
1358849970466;290.0
1358849975482;292.0
1358849980498;292.0
1358849985498;292.0
1358849990544;293.0
1358849995544;292.0
1358850000576;291.0
1358850005576;290.0
1358850010576;290.0
1358850015654;290.0
1358850020607;287.0
1358850025638;288.0
1358850030701;290.0
1358850035638;287.0
1358850040669;288.0
1358850045685;288.0
1358850050701;287.0
1358850055701;288.0
1358850060763;288.0
1358850065748;288.0
1358850070826;480.0
1358850075810;484.0
1358850080794;484.0
1358850085763;486.0
1358850090935;484.0
1358850095810;487.0
1358850100888;486.0
1358850105826;484.0
1358850110951;486.0
1358850115888;485.0
1358850120935;487.0
1358850125935;481.0
1358850130935;480.0
1358850135982;483.0
1358850140951;485.0
