1358848104623;226.0
1358848106638;226.0
1358848109560;226.0
1358848114607;226.0
1358848119607;226.0
1358848124638;226.0
1358848129638;226.0
1358848134716;225.0
1358848139685;226.0
1358848144685;226.0
1358848149716;226.0
1358848154732;226.0
1358848159732;227.0
1358848164763;227.0
1358848169763;226.0
1358848174794;226.0
1358848179826;227.0
1358848184810;227.0
1358848189841;226.0
1358848194857;227.0
1358848199873;226.0
1358848204888;227.0
1358848209904;225.0
1358848214919;226.0
1358848219919;225.0
1358848224935;225.0
1358848229982;226.0
1358848234998;225.0
1358848239998;225.0
1358848244998;225.0
1358848250013;225.0
1358848255060;225.0
1358848260060;225.0
1358848265107;225.0
1358848270091;225.0
1358848275076;226.0
1358848280169;228.0
1358848285123;228.0
1358848290169;228.0
1358848295201;228.0
1358848300154;228.0
1358848305201;229.0
1358848310232;228.0
1358848315248;228.0
1358848320263;228.0
1358848325263;227.0
1358848330294;228.0
1358848335326;227.0
1358848340326;227.0
1358848345310;227.0
1358848350451;228.0
1358848355419;228.0
1358848360404;227.0
1358848365451;227.0
1358848370435;228.0
1358848375466;228.0
1358848380654;228.0
1358848385482;228.0
1358848390498;228.0
1358848395513;228.0
1358848400482;228.0
1358848405560;228.0
1358848410560;228.0
1358848415638;227.0
1358848420607;227.0
1358848425591;228.0
1358848430685;228.0
1358848435607;228.0
1358848440685;228.0
1358848445763;228.0
1358848450732;228.0
1358848455716;229.0
1358848460810;228.0
1358848465748;227.0
1358848470748;228.0
1358848475748;229.0
1358848480748;229.0
1358848485779;229.0
1358848490763;228.0
1358848495810;228.0
1358848500794;229.0
1358848505873;228.0
1358848510857;228.0
1358848515873;229.0
1358848520904;229.0
1358848525904;228.0
1358848530951;229.0
1358848535966;229.0
1358848540966;229.0
1358848546029;227.0
1358848551044;228.0
1358848556029;228.0
1358848561013;228.0
1358848566044;228.0
1358848571060;228.0
1358848576138;228.0
1358848581154;228.0
1358848586123;228.0
1358848591138;228.0
1358848596138;228.0
1358848601138;227.0
1358848606138;228.0
1358848611201;228.0
1358848616169;228.0
1358848621263;229.0
1358848626373;229.0
1358848631310;229.0
1358848636248;229.0
1358848641435;229.0
1358848646310;229.0
1358848651294;229.0
1358848656685;229.0
1358848661373;229.0
1358848666357;228.0
1358848671638;228.0
1358848676388;228.0
1358848681404;228.0
1358848686435;228.0
1358848691419;228.0
1358848696466;228.0
1358848701529;228.0
1358848706513;227.0
1358848711576;228.0
1358848716513;228.0
1358848721623;227.0
1358848726576;227.0
1358848731669;228.0
1358848736591;229.0
1358848741685;229.0
1358848746654;229.0
1358848751669;229.0
1358848756716;229.0
1358848761654;229.0
1358848766685;229.0
1358848771701;229.0
1358848776685;230.0
1358848781763;229.0
1358848786748;228.0
1358848791873;228.0
1358848796779;228.0
1358848801810;229.0
1358848806794;228.0
1358848811794;228.0
1358848816857;228.0
1358848821904;228.0
1358848826873;228.0
1358848831935;228.0
1358848836873;229.0
1358848841904;228.0
1358848846904;228.0
1358848851966;230.0
1358848857013;230.0
1358848862029;230.0
1358848867044;230.0
1358848872029;230.0
1358848877013;229.0
1358848882091;230.0
1358848887044;229.0
1358848892060;229.0
1358848897138;227.0
1358848902107;228.0
1358848907091;228.0
1358848912185;227.0
1358848917201;227.0
1358848922138;227.0
1358848927263;227.0
1358848932248;227.0
1358848937201;227.0
1358848942201;227.0
1358848947263;227.0
1358848952263;227.0
1358848957294;228.0
1358848962326;227.0
1358848967294;228.0
1358848972373;228.0
1358848977451;228.0
1358848982404;228.0
1358848987435;228.0
1358848992357;228.0
1358848997404;228.0
1358849002529;228.0
1358849007435;229.0
1358849012560;228.0
1358849017451;228.0
1358849022466;228.0
1358849027576;228.0
1358849032544;228.0
1358849037560;227.0
1358849042544;227.0
1358849047560;228.0
1358849052560;228.0
1358849057591;227.0
1358849062591;228.0
1358849067654;228.0
1358849072701;228.0
1358849077654;227.0
1358849082669;228.0
1358849087701;228.0
1358849092826;229.0
1358849098560;229.0
1358849102779;229.0
1358849107748;229.0
1358849112779;229.0
1358849117810;229.0
1358849122873;229.0
1358849127873;228.0
1358849132857;228.0
1358849137841;228.0
1358849142873;228.0
1358849147935;228.0
1358849152873;228.0
1358849157951;229.0
1358849162919;229.0
1358849167966;228.0
1358849173013;228.0
1358849178013;228.0
1358849182966;228.0
1358849188060;228.0
1358849192998;228.0
1358849198029;228.0
1358849203091;229.0
1358849208091;229.0
1358849213107;229.0
1358849218138;229.0
1358849223138;229.0
1358849228154;229.0
1358849233154;228.0
1358849238185;229.0
1358849243201;229.0
1358849248279;227.0
1358849253201;227.0
1358849258216;228.0
1358849263279;227.0
1358849268263;228.0
1358849273294;228.0
1358849278341;227.0
1358849283419;228.0
1358849288310;227.0
1358849293544;227.0
1358849298435;227.0
1358849303388;227.0
1358849308404;227.0
1358849313435;228.0
1358849318466;227.0
1358849323419;227.0
1358849328419;229.0
1358849333498;228.0
1358849338482;228.0
1358849343544;229.0
1358849348544;228.0
1358849353560;228.0
1358849358513;229.0
1358849363544;228.0
1358849368654;228.0
1358849373669;227.0
1358849378591;227.0
1358849383654;228.0
1358849388669;227.0
1358849393701;227.0
1358849398748;227.0
1358849403748;227.0
1358849408701;227.0
1358849413748;227.0
1358849418748;227.0
1358849423763;227.0
1358849428826;228.0
1358849433810;227.0
1358849438794;227.0
1358849443779;228.0
1358849448826;228.0
1358849453841;228.0
1358849458873;229.0
1358849463904;228.0
1358849468951;228.0
1358849473935;229.0
1358849478966;229.0
1358849484044;228.0
1358849489029;227.0
1358849493966;227.0
1358849499060;227.0
1358849503998;227.0
1358849509044;227.0
1358849514076;227.0
1358849519091;227.0
1358849524091;227.0
1358849529076;228.0
1358849534123;228.0
1358849539138;227.0
1358849544169;227.0
1358849549138;227.0
1358849554185;227.0
1358849559169;227.0
1358849564232;227.0
1358849569232;228.0
1358849574310;227.0
1358849579294;227.0
1358849584294;228.0
1358849589294;229.0
1358849594310;229.0
1358849599294;229.0
1358849604388;229.0
1358849609310;229.0
1358849614529;229.0
1358849619482;229.0
1358849624419;229.0
1358849629404;229.0
1358849634404;229.0
1358849639404;229.0
1358849644435;229.0
1358849649482;228.0
1358849654560;227.0
1358849659482;227.0
1358849664513;228.0
1358849669576;228.0
1358849674591;228.0
1358849679638;228.0
1358849684607;228.0
1358849689638;229.0
1358849694591;229.0
1358849699638;229.0
1358849704654;229.0
1358849709701;228.0
1358849714685;229.0
1358849719748;228.0
1358849724826;230.0
1358849729826;230.0
1358849734748;229.0
1358849739794;229.0
1358849744857;230.0
1358849749826;230.0
1358849754810;230.0
1358849759904;230.0
1358849764810;229.0
1358849769904;229.0
1358849774857;228.0
1358849779873;229.0
1358849784919;229.0
1358849789951;228.0
1358849795029;228.0
1358849799966;228.0
1358849805060;228.0
1358849810029;228.0
1358849815029;228.0
1358849820060;229.0
1358849825044;228.0
1358849830013;228.0
1358849835154;228.0
1358849840091;228.0
1358849845076;229.0
1358849850201;229.0
1358849855341;229.0
1358849860185;229.0
1358849865169;229.0
1358849870216;230.0
1358849875185;230.0
1358849880279;229.0
1358849885294;229.0
1358849890279;228.0
1358849895326;228.0
1358849900279;228.0
1358849905373;229.0
1358849910388;228.0
1358849915576;228.0
1358849920341;228.0
1358849925419;228.0
1358849930357;228.0
1358849935373;228.0
1358849940419;229.0
1358849945451;229.0
1358849950466;229.0
1358849955498;228.0
1358849960529;230.0
1358849965451;230.0
1358849970544;229.0
1358849975544;230.0
1358849980591;229.0
1358849985544;229.0
1358849990591;229.0
1358849995638;230.0
1358850000654;230.0
1358850005638;228.0
1358850010638;229.0
1358850015732;228.0
1358850020654;228.0
1358850025685;228.0
1358850030779;228.0
1358850035716;228.0
1358850040716;228.0
1358850045732;228.0
1358850050779;228.0
1358850055748;227.0
1358850060810;228.0
1358850065826;228.0
1358850070904;227.0
1358850075873;228.0
1358850080873;229.0
1358850085826;229.0
1358850091029;229.0
1358850095935;229.0
1358850100982;229.0
1358850105888;228.0
1358850111029;229.0
1358850115935;229.0
1358850121013;230.0
1358850125998;228.0
1358850131013;228.0
1358850136044;228.0
1358850141013;228.0
