1358848109997;blind - open	kitchen
1358848111992;none	none
1358848173847;light - on	kitchen - ceiling
1358848175842;none	none
1358848245679;light - on	kitchen - ceiling
1358848247674;none	none
1358848532007;tts - time	kitchen
1358848534002;none	none
1358848575904;light - on	bedroom - ceiling
1358848577982;none	none
1358848592864;light - on	bedroom - ceiling
1358848594859;none	none
1358848627782;tts - temperature	bedroom
1358848629777;none	none
1358848730541;light - on	kitchen - sink
1358848732619;none	none
1358849228373;tts - time	kitchen
1358849230368;none	none
1358849244335;blind - close	kitchen
1358849246331;none	none
1358849262293;blind - close	kitchen
1358849264289;none	none
1358849340111;blind - close	study
1358849342106;none	none
1358849358069;light - on	study - ceiling
1358849360064;none	none
1358849408949;phone - help	study
1358849410935;none	none
1358849410955;phone - son	study
1358849412940;none	none
1358849507717;light - off	study - ceiling
1358849509713;none	none
1358849565582;blind - close	bedroom
1358849567577;none	none
1358849646392;light - off	bedroom - ceiling
1358849648387;none	none
1358849664350;light - off	bedroom - ceiling
1358849666345;none	none
1358849717226;light - off	bedroom - ceiling
1358849719221;none	none
