1355151857829;6.17985
1355151858829;0
1355151861281;12.2702
1355151862833;0
1355151863852;0.170263
1355151864852;0
1355151868725;23.172
1355151869725;0
1355151927896;6.54455
1355151928896;0
1355151960993;8.31244
1355151961993;0
1355152095333;43.5396
1355152096333;0
1355152124380;6.22328
1355152126156;0
1355152193616;9.94739
1355152194616;0
1355152331958;9.16587
1355152332958;0
1355152350368;8.30622
1355152351368;0
1355152375881;1.05762
1355152376881;0
1355152384205;36.4393
1355152385205;0
1355152387117;51.2988
1355152388117;0
1355152474422;47.9706
1355152475422;0
1355152644991;4.5128
1355152645991;0
1355152705023;5.6632
1355152706023;0
1355152710776;47.3915
1355152711776;0
1355152725463;3.84601
1355152726463;0
1355152777911;9.33954
1355152778911;0
1355152783464;38.3504
1355152784464;0
1355152804645;2.43878
1355152805595;39.0788
1355152806595;0
1355152821565;4.94184
1355152822565;0
1355152996726;2.7756
1355152997726;0
1355153047553;1.02567
1355153049777;0
1355153051425;0.216887
1355153054145;0
1355153071725;1.22539
1355153072725;0
1355153106864;3.50498
1355153107864;0
1355153305037;3.54604
1355153306037;0
1355153323587;25.9417
1355153324587;0
1355153327109;11.7037
1355153328109;0
1355153329950;4.22903
1355153330950;0
