1355151833887;0
1355152167131;0
1355152167209;98
1355152270268;0
1355152270346;0
1355152498140;0
1355152498218;98
1355152500140;0
1355152500249;0
1355152720745;0
1355152720839;98
1355153241699;0
1355153241824;0
