1355151833778;1229.44
1355151856187;1227.52
1355151916319;1228.8
1355151979327;1232.0
1355152039381;1229.44
1355152096622;1233.92
1355152156661;1239.68
1355152216637;1244.8
1355152276628;1243.52
1355152336729;1242.88
1355152396705;1238.4
1355152456728;1242.88
1355152516798;1244.8
1355152576884;1254.4
1355152654424;1258.88
1355152696898;1261.44
1355152756984;1255.68
1355152817085;1244.8
1355152877295;1223.68
1355152937287;1201.92
1355152997341;1185.92
1355153057395;1180.8
1355153117434;1180.8
1355153177472;1201.92
1355153241574;1216.0
1355153297690;1219.84
1355153357682;1223.68
