1355151833262;0.0
1355151843201;0.0
1355151874189;0.0
1355151903192;0.0
1355151933227;0.0
1355151963200;5.0
1355151993172;5.0
1355152030442;5.0
1355152053211;5.0
1355152084636;5.0
1355152114749;5.0
1355152143190;4.0
1355152173194;6.0
1355152203182;6.0
1355152246734;6.0
1355152263158;6.0
1355152294990;5.0
1355152332354;5.0
1355152353153;5.0
1355152383173;5.0
1355152413192;5.0
1355152443149;4.0
1355152473184;5.0
1355152503203;5.0
1355152533347;0.0
1355152563194;0.0
1355152593573;0.0
1355152623249;0.0
1355152658597;0.0
1355152683147;0.0
1355152713150;0.0
1355152743138;1.0
1355152773142;1.0
1355152803177;0.0
1355152833149;0.0
1355152863137;0.0
1355152893156;0.0
1355152923160;0.0
1355152953148;0.0
1355152983136;0.0
1355153013155;0.0
1355153043128;0.0
1355153073116;0.0
1355153103135;0.0
1355153133139;0.0
1355153163283;0.0
1355153193115;0.0
1355153223118;0.0
1355153253153;0.0
1355153285751;0.0
1355153313114;0.0
1355153343149;0.0
1355153373121;0.0
