1355151833371;21.94
1355151935493;21.94
1355152055523;21.94
1355152175522;21.94
1355152295521;21.94
1355152415552;21.98
1355152537738;21.94
1355152662097;21.96
1355152776970;21.94
1355152895516;21.94
1355153015499;21.86
1355153138296;21.92
1355153255544;21.94
1355153375496;21.98
